[
  {
    "pageId": "Home",
    "folder": "",
    "file": "",
    "title": "Home",
    "type": "component"
  },
  {
    "pageId": "BulletinBoard",
    "folder": "",
    "file": "",
    "title": "Announcements",
    "type": "component"
  },
  {
    "pageId": "AboutUs",
    "folder": "about",
    "file": "about.html",
    "title": "About Us",
    "type": "html"
  },
  {
    "pageId": "ContactUs",
    "folder": "about",
    "file": "contact.html",
    "title": "Contact Us",
    "type": "html"
  },
  {
    "pageId": "LetterToStudent",
    "folder": "about",
    "file": "letter2student.html",
    "title": "Letter to Student",
    "type": "html"
  },
  {
    "pageId": "GWCAIntro",
    "folder": "about",
    "file": "https://mp.weixin.qq.com/s/nCsEf6ukpIZiR1-wXHH7Ow",
    "title": "中文学校介绍",
    "type": "href"
  },
  {
    "pageId": "SchoolPoster",
    "folder": "about",
    "file": "https://drive.google.com/file/d/1mlGibN25Ee78RszbguqvLRqNU2SRzRlS/view?usp=sharing",
    "title": "School Poster",
    "type": "href"
  },
  {
    "pageId": "Student",
    "folder": "about",
    "file": "student.html",
    "title": "Students",
    "type": "html"
  },
  {
    "pageId": "Staff",
    "folder": "about",
    "file": "staff.html",
    "title": "Teacher & Staff",
    "type": "html"
  },
  {
    "pageId": "StaffAwards",
    "folder": "about",
    "file": "https://drive.google.com/file/d/16cLhAEuuV5VJ6TGo5ZAoJuoEb2bhotz8/view?usp=sharing",
    "title": "Staff Awards",
    "type": "href"
  },
  {
    "pageId": "StudentAwards",
    "folder": "about",
    "file": "https://drive.google.com/file/d/19KEWEepIgaGwRsl5AJwi3MPC4vun83j7/view?usp=sharing",  
    "title": "Student Awards",
    "type": "href"
  },
  {
    "pageId": "RoadMap",
    "folder": "academics",
    "file": "assets/images/site/road-map.jpg",
    "title": "Road Map",
    "type": "image"
  },
  {
    "pageId": "CourseDescription",
    "folder": "academics",
    "file": "https://drive.google.com/file/d/1KNMzANBv-TyspbHWSXzY0YtRNEzrYSdn/view?usp=sharing",  
    "title": "Course Description",
    "type": "href"
  },
  {
    "pageId": "CultureEnrichment",
    "folder": "academics",
    "file": "https://drive.google.com/file/d/1YuGPxjzVOeIk9K1hAtjfLr2O2EwrBh7r/view?usp=sharing",
    "title": "Culture & Enrichment Classes",
    "type": "href"
  },
  {
    "pageId": "HighSchoolCredit",  
    "folder": "academics",
    "file": "hs-credits.html",
    "title": "High School Credits",
    "type": "html"
  },
  {
    "pageId": "Standards",
    "folder": "academics",
    "file": "standard.html",
    "title": "Content Standards",
    "type": "html"
  },
  {
    "pageId": "Story",
    "folder": "story",
    "file": "essay-selections.html",
    "title": "毕业生作文选",
    "type": "html"
  },
  {
    "pageId": "Essays2021",
    "folder": "story",
    "file": "https://drive.google.com/file/d/12yJBt2qKzUIsHlT4bUNbVBHtPxLl2GTY/view?usp=sharing",
    "title": "2021 Essays",
    "type": "href"
  },
  {
    "pageId": "Essays2020",
    "folder": "story",
    "file": "https://drive.google.com/file/d/1EjTc3RfzIxjWWac4hcKHV4jkOoEJv0K_/view?usp=sharing",
    "title": "2020 Essays",
    "type": "href"
  },
  {
    "pageId": "ClassCulture2020",
    "folder": "story",
    "file": "https://drive.google.com/file/d/18JeYHbm88bvJNA6jENNznfTVXhh9-rLe/view?usp=sharing",
    "title": "2020 Culture",
    "type": "href"
  },
  {
    "pageId": "Essays2019",
    "folder": "story",
    "file": "2019-essays.html",
    "title": "2019 Essays",
    "type": "html"
  },
  {
    "pageId": "ClassCulture2019",
    "folder": "story",
    "file": "assets/images/artworks/2019-ClassCulture.jpg",
    "title": "2019 Culture",
    "type": "image"
  },
  {
    "pageId": "StudentArtwork2019",
    "folder": "story",
    "file": "assets/images/artworks/2019-StudentArtworks.jpg",
    "title": "2019 Artwork",
    "type": "image"
  },
  {
    "pageId": "Essays2018",
    "folder": "story",
    "file": "https://drive.google.com/file/d/1iyGBZw8zvRuviOLfG2yqM6YGDIMrNz6N/view?usp=sharing",
    "title": "2018 Essays",
    "type": "href"
  },
  {
    "pageId": "ClassCulture2018",
    "folder": "story",
    "file": "assets/images/artworks/2018-ClassCulture.png",
    "title": "2018 Culture",
    "type": "image"
  },
  {
    "pageId": "StudentArtwork2018",
    "folder": "story",
    "file": "assets/images/artworks/2018-StudentArtworks.png",
    "title": "2018 Artwork",
    "type": "image"
  },
  {
    "pageId": "Essays2017",
    "folder": "story",
    "file": "https://drive.google.com/file/d/1fcCmIcF5Eahs1GQ9xlPHbLsrKVq2r9zx/view?usp=sharing",
    "title": "2017 Essays",
    "type": "href"
  },
  {
    "pageId": "ClassCulture2017",
    "folder": "story",
    "file": "assets/images/artworks/2017-ClassActivities.jpg",
    "title": "2017 Activities",
    "type": "image"
  },
  {
    "pageId": "StudentArtwork2017",
    "folder": "story",
    "file": "assets/images/artworks/2017-StudentArtworks.jpg",
    "title": "2017 Artwork",
    "type": "image"
  },
  {
    "pageId": "Essays2016",
    "folder": "story",
    "file": "https://drive.google.com/file/d/1sm8PEtXhkI1MPqLmZVbSoWzcAgHjyOVg/view?usp=sharing",
    "title": "2016 Essays",
    "type": "href"
  },
  {
    "pageId": "StudentArtwork2016",
    "folder": "story",
    "file": "assets/images/artworks/2016-StudentArtworks.jpg",
    "title": "2016 Artwork",
    "type": "image"
  },
  {
    "pageId": "Essays2015",
    "folder": "story",
    "file": "https://drive.google.com/file/d/1fAMnPNCi1fhqXOVcsETnX81iXs4jdTRv/view?usp=sharing",
    "title": "2015 Essays",
    "type": "href"
  },
  {
    "pageId": "ClassCulture2015",
    "folder": "story",
    "file": "assets/images/artworks/2015-ClassActivities.jpg",
    "title": "2015 Activities",
    "type": "image"
  },
  {
    "pageId": "StudentArtwork2015",
    "folder": "story",
    "file": "assets/images/artworks/2015-StudentArtworks.jpg",
    "title": "2015 Artwork",
    "type": "image"
  },
  {
    "pageId": "StudentArtwork2013",
    "folder": "story",
    "file": "assets/images/artworks/2013-StudentArtworks.jpg",
    "title": "2013 Artwork",
    "type": "image"
  },
  {
    "pageId": "Essays2012",
    "folder": "story",
    "file": "https://drive.google.com/file/d/1_z04hnKby0bifLUr3q1zkGLbpHTRgDYN/view?usp=sharing",
    "title": "2012 Essays",
    "type": "href"
  },
  {
    "pageId": "StudentArtwork2012",
    "folder": "story",
    "file": "assets/images/artworks/2012-StudentArtworks.jpg",
    "title": "2012 Artwork",
    "type": "image"
  },
  {
    "pageId": "ClassCulture2011",
    "folder": "story",
    "file": "assets/images/artworks/2011-ClassCulture.jpg",
    "title": "2011 Culture",
    "type": "image"
  },
  {
    "pageId": "StudentArtwork2011",
    "folder": "story",
    "file": "assets/images/artworks/2011-StudentArtworks.jpg",
    "title": "2011 Artwork",
    "type": "image"
  },
  {
    "pageId": "Essays2010",
    "folder": "story",
    "file": "https://drive.google.com/file/d/16N50AhEdvNHggT27TtE24KZr9db2xTR0/view?usp=sharing",
    "title": "2010 Essays",
    "type": "href"
  },
  {
    "pageId": "StudentKungfu2008",
    "folder": "story",
    "file": "assets/images/artworks/2008-KungfuViolinClass.jpg",
    "title": "2008 Kungfu Violin",
    "type": "image"
  },
  {
    "pageId": "Sketching2008",
    "folder": "story",
    "file": "assets/images/artworks/2008-SketchingClass.jpg",
    "title": "2008 Sketching",
    "type": "image"
  },
  {
    "pageId": "StudentArtwork2008",
    "folder": "story",
    "file": "assets/images/artworks/2008-StudentArtworks.jpg",
    "title": "2008 Artwork",
    "type": "image"
  },
  {
    "pageId": "SchoolVideo",
    "folder": "clips",
    "file": "video-clips.html",
    "title": "Video Clips",
    "type": "html"
  },
  {
    "pageId": "YoutubeChannel",
    "folder": "clips",
    "file": "https://www.youtube.com/channel/UCqNZ6uIYu6vvZexl5JUzJDw/featured",
    "title": "@Youtube",
    "type": "href"
  },
  {
    "pageId": "FacebookChannel",
    "folder": "clips",
    "file": "https://www.facebook.com/pg/gwcachineseschool/videos/?ref=page_internal",
    "title": "@Facebook",
    "type": "href"
  },
  {
    "pageId": "TwitterChannel",
    "folder": "clips",
    "file": "https://twitter.com/chinese4denver/media",
    "title": "@Twitter",
    "type": "href"
  },
  {
    "pageId": "NewsLetter",
    "folder": "",
    "file": "https://groups.google.com/forum/embed/?place=forum/gwca_news#!forum/gwca_news",
    "title": "News Letter",
    "type": "href"
  },
  {
    "pageId": "FirstBank",
    "folder": "partners",
    "file": "firstbank.html",
    "title": "First Bank",
    "type": "html"
  },
  {
    "pageId": "Partners",
    "folder": "partners",
    "file": "partners.html",
    "title": "Community & Partners",
    "type": "html"
  },
  {
    "pageId": "ChineseTeacher",
    "folder": "links",
    "file": "http://www.ccltc.org/",
    "title": "Chinese Teachers",
    "type": "href"
  },
  {
    "pageId": "ChineseEndorsement",
    "folder": "links",
    "file": "http://www.cde.state.co.us/cdeprof/endorsementrequirements",
    "title": "Endorsement",
    "type": "href"
  },
  {
    "pageId": "PrivateTutors",
    "folder": "links",
    "file": "private-tutor.html",
    "title": "Private Tutors",
    "type": "html"
  },
  {
    "pageId": "CollegeCorner",
    "folder": "links",
    "file": "college-corner.html",
    "title": "College Corner",
    "type": "html"
  },
  {
    "pageId": "SchoolResources",
    "folder": "links",
    "file": "https://sites.google.com/a/greatwallchineseacademy.org/links/",
    "title": "School Resources",
    "type": "href"
  },
  {
    "pageId": "ChineseNewYear",
    "folder": "event",
    "file": "chinese-new-year.html",
    "title": "Chinese New Year",
    "type": "html"
  },
  {
    "pageId": "DragonBoat",
    "folder": "event",
    "file": "dragon-boat.html",
    "title": "Dragon Boat",
    "type": "html"
  },
  {
    "pageId": "GotTalent",
    "folder": "event",
    "file": "got-talent.html",
    "title": "GWCA's Got Talent",
    "type": "html"
  },
  {
    "pageId": "StudentApplication",
    "folder": "registration",
    "file": "https://docs.google.com/forms/d/e/1FAIpQLSe_kbaT38c2XpoU5VjJcTK8u76Hn5mgN6IoYKplETyPs2HhjQ/viewform",
    "title": "Student Application",
    "type": "drive"
  },
  {
    "pageId": "AudltClassSignup",
    "folder": "registration",
    "file": "https://docs.google.com/forms/d/e/1FAIpQLSfeCTBplbP27ZscX8xCd5QxzWZ5rD4gi11USbO5wyPEKdjLkw/viewform",
    "title": "Adult Club Signup",
    "type": "drive"
  },
  {
    "pageId": "Calendar2021",
    "folder": "registration",
    "file": "https://drive.google.com/file/d/1iZR7woMzfRIHSGjmcX-Msycf9Gh9Zp7K/view?usp=sharing",
    "title": "School Calendar 2020-2021",
    "type": "href"
  },
  {
    "pageId": "Calendar2022",
    "folder": "registration",
    "file": "https://drive.google.com/file/d/1cGr8KVppN-ri4w_my-zyr-8DRExSujck/view?usp=sharing",
    "title": "School Calendar 2021-2022",
    "type": "href"
  },
  {
    "pageId": "SummerCamp",
    "folder": "registration",
    "file": "https://drive.google.com/file/d/1HVqMFOVE19fv0cOHBjX0j7uepZaI8LH7/view?usp=sharing",
    "title": "2021 Summer Camp",
    "type": "href"
  }, 
  {
    "pageId": "VolunteerSignup",
    "folder": "registration",
    "file": "https://docs.google.com/forms/d/e/1FAIpQLSesRh3aYRF51-c89UB6p0cL2rppMMG2oX7gt4q5bX0sXdAhIg/viewform",
    "title": "Volunteers Signup",
    "type": "drive"
  },
  {
    "pageId": "SATSummerClass",
    "folder": "registration",
    "file": "https://docs.google.com/forms/d/e/1FAIpQLSd9fl2aVi1hsTAob-zWe5XaZKKtTd4l-C3uMiQBT7eqsc3xhA/viewform",
    "title": "SAT Summer Class",
    "type": "drive"
  },
  {
    "pageId": "Yearbooks",
    "folder": "yearbooks",
    "file": "yearbook.html",
    "title": "Yearbooks",
    "type": "html" 
  },
  {
    "pageId": "2020Yearbook",
    "folder": "yearbooks",
    "file": "https://drive.google.com/file/d/1AYCP8UwqxfrcGU7ZxpWYmUT_n3tplj6o/view?usp=sharing",
    "title": "Yearbook 2020",
    "type": "href"
  },
  {
    "pageId": "2019Yearbook",
    "folder": "yearbooks",
    "file": "https://drive.google.com/file/d/1K4V_0zm2rHsude3TvSV9CnISMPrcb5XW/view?usp=sharing",
    "title": "Yearbook 2019",
    "type": "href"
  },
  {
    "pageId": "2018Yearbook",
    "folder": "yearbooks",
    "file": "https://drive.google.com/file/d/1jJhV1rvSN0tNUfGMRRX86fQB1158Q-GV/view?usp=sharing",
    "title": "Yearbook 2018",
    "type": "href"
  },
  {
    "pageId": "2017Yearbook",
    "folder": "yearbooks",
    "file": "https://drive.google.com/file/d/15inwPRWMF1usHg8InB8WRRc5I8bVwlMJ/view?usp=sharing",
    "title": "Yearbook 2017",
    "type": "href"
  },
  {
    "pageId": "2016Yearbook",
    "folder": "yearbooks",
    "file": "https://drive.google.com/file/d/1uzbhpJviVmZRKU0W8pGoAzAX6sTZ-_9w/view?usp=sharing",
    "title": "Yearbook 2016",
    "type": "href"
  },
  {
    "pageId": "2015Yearbook",
    "folder": "yearbooks",
    "file": "https://drive.google.com/file/d/1Jt9gaMcxK8_Yh26w8YcwZmAGAcbf8cQn/view?usp=sharing",
    "title": "Yearbook 2015",
    "type": "href"
  },
  {
    "pageId": "2014Yearbook",
    "folder": "yearbooks",
    "file": "https://drive.google.com/file/d/1TTv9V40A-hx_q_dP87fWXP3vpzApOwOi/view?usp=sharing",
    "title": "Yearbook 2014",
    "type": "href"
  },
  {
    "pageId": "2013Yearbook",
    "folder": "yearbooks",
    "file": "https://drive.google.com/file/d/1Ze-20Xfe9RimrTtwxRaoNRag5QauKupj/view?usp=sharing",
    "title": "Yearbook 2013",
    "type": "href"
  },
  {
    "pageId": "2012Yearbook",
    "folder": "yearbooks",
    "file": "https://drive.google.com/file/d/1_z04hnKby0bifLUr3q1zkGLbpHTRgDYN/view?usp=sharing",
    "title": "Yearbook 2012",
    "type": "href"
  },
  {
    "pageId": "2011Yearbook",
    "folder": "yearbooks",
    "file": "https://drive.google.com/file/d/1QWcXi1scAz2YHHwiU-re7nwIYsWAMxmr/view?usp=sharing",
    "title": "Yearbook 2011",
    "type": "href"
  },
  {
    "pageId": "2009Yearbook",
    "folder": "yearbooks",
    "file": "https://drive.google.com/file/d/1bJfI9aRitbHSfLPYsz-Io7t0i4h87hW0/view?usp=sharing",
    "title": "Yearbook 2009",
    "type": "href"
  },
  {
    "pageId": "2006Yearbook",
    "folder": "yearbooks",
    "file": "https://drive.google.com/file/d/1YvBFou-JYCkrlSqFduXed05cFV8lXWu9/view?usp=sharing",
    "title": "Yearbook 2006",
    "type": "href"
  },
  {
    "pageId": "2005Yearbook",
    "folder": "yearbooks",
    "file": "https://drive.google.com/file/d/1Av6muO7Yn6stgIcNbkSQvqmCsre2Z61O/view?usp=sharing",
    "title": "Yearbook 2005",
    "type": "href"
  },
  {
    "pageId": "2004Yearbook",
    "folder": "yearbooks",
    "file": "https://drive.google.com/file/d/1aI4vw2nCkzNIZgojERfUWYIj7bEEpV82/view?usp=sharing",
    "title": "Yearbook 2004",
    "type": "href"
  },
  {
    "pageId": "ChineseSchoolStudentCouncil",
    "folder": "",
    "file": "https://drive.google.com/file/d/1FoI3-UEQomwAv_XQGg_ikWan5okdQbli/view?usp=sharing",  
    "title": "Chinese School Student Council",
    "type": "href"
  },
  {
    "pageId": "NationalChineseHonorSociety",
    "folder": "",
    "file": "https://drive.google.com/file/d/1DfDWYbPOfSaaDceyRMvLSLShHuwlpOux/view?usp=sharing",  
    "title": "National Chinese Honor Society",
    "type": "href"
  },
  {
    "pageId": "PresidentsVolunteerServiceAward",
    "folder": "",
    "file": "https://drive.google.com/file/d/12RzcR391RWWXmkwIHEqSqZs1V3n9v8VB/view?usp=sharing",  
    "title": "President' s Volunteer Service Award",
    "type": "href"
  },
  {
    "pageId": "HighSchoolGraduatesAndScholarship",
    "folder": "",
    "file": "https://drive.google.com/file/d/1Kru5gaBcCcpDhFXYh7zcpgzmKmBgafcl/view?usp=sharing",  
    "title": "High School Graduates & Scholarship",
    "type": "href"
  },
  {
    "pageId": "StudentCouncilElectionGuide",
    "folder": "",
    "file": "https://docs.google.com/document/d/1etmz8RMEJ1nNcTFa9UP7RI4wcZUM1OKpgBxHhG30GpI/edit?usp=sharing",  
    "title": "Student Council Election Guide",
    "type": "href"
  },
  {
    "pageId": "StudentCouncilCandidacyForm",
    "folder": "",
    "file": "https://docs.google.com/forms/d/1lKxKkNdlXeBv1flVf-FAtdBq-Mwnjotd8zbp-fFbP4U/viewform",  
    "title": "Student Council Candidacy Form",
    "type": "href"
  },
  {
    "pageId": "LogVolunteerHours",
    "folder": "",
    "file": "https://docs.google.com/forms/d/1S1PCVuKP3MuR07eAIDytfKUjy8gW__NVIzarIDVZ6Vo/viewform",
    "title": "Log Volunteer Hours",
    "type": "href"
  },
  {
    "pageId": "JoinStudentsGoogleGroup",
    "folder": "",
    "file": "https://groups.google.com/forum/?hl=en#!forum/gwca-student-council",  
    "title": "Join Students Google Group",
    "type": "href"
  },
  {
    "pageId": "VolunteerVerificationForm",
    "folder": "",
    "file": "https://drive.google.com/file/d/1_VS9ZgK9-JXz5SuKii6VppDQgXaFvSTz/view?usp=sharing",  
    "title": "Volunteer Verification Form",
    "type": "href"
  },
  {
    "pageId": "VolunteerWaiverForm",
    "folder": "",
    "file": "https://drive.google.com/file/d/1CkmguhSpk2O8zmpHJbvVgxTsjOv6zAuy/view?usp=sharing",  
    "title": "Volunteer Waiver Form",
    "type": "href"
  },
  {
    "pageId": "VolunteerSignupForm",
    "folder": "",
    "file": "https://drive.google.com/file/d/12RzcR391RWWXmkwIHEqSqZs1V3n9v8VB/view?usp=sharing",  
    "title": "Volunteer Signup Form",
    "type": "href"
  },
  {
    "pageId": "TalentSearch",
    "folder": "",
    "file": "https://docs.google.com/forms/d/1KhvX7olMRlYWK9b17KsDPgDmWFTn14-Xoe8tHJEyZJY/viewform",  
    "title": "Talent Search",
    "type": "href"
  },
  {
    "pageId": "AlumniForm",
    "folder": "",
    "file": "https://docs.google.com/forms/d/1xU8f-x2WLYWjYKTt_GrnUDCKYlhkD94qzs5TOaYCWA0/viewform",  
    "title": "Alumni Form",
    "type": "href"
  },
  {
    "pageId": "GuidelinesForApplyingToTopColleges",
    "folder": "",
    "file": "https://drive.google.com/file/d/1jWabsjFAgOqMQa36AtTDSI2qUoaxW4js/view?usp=sharing",  
    "title": "Guidelines for Applying to Top Colleges",
    "type": "href"
  },
  {
    "pageId": "UnderstandingAmericanCollege",
    "folder": "",
    "file": "https://drive.google.com/file/d/14NEyOSY7gBMlqh2nkrc2NUVPfBpw9k_j/view?usp=sharing",  
    "title": "Understanding American College",
    "type": "href"
  },
  {
    "pageId": "InterviewsOfHSGraduates",
    "folder": "",
    "file": "https://drive.google.com/file/d/1eHaAR2X355psd7DeFHLI9kzfrSPB3byE/view?usp=sharing",  
    "title": "Interviews of HS Graduates",
    "type": "href"
  },
  {
    "pageId": "PrepareForCollegeFinance",
    "folder": "",
    "file": "https://drive.google.com/file/d/1pruwcxNQGxNpRFYQcEJ6kOPar_GWl594/view?usp=sharing",  
    "title": "Prepare for College Finance",
    "type": "href"
  }
]
