
{
    "courseId":"npcr2",
    "lessonId":"16",
    "chapterId":"2",
    "quizletId":"196305410",
    "title":"第16课生词(2)",
    "entries":[
        {
            "id":"chang-long",
            "pinyin":"cháng",
            "image":"chang-long.swf",
            "entry":{
                "value":"长",
                "translation":"long"
            },
            "words":[
                {
                    "value":"长头发",
                    "translation":"long hair"
                },
                {
                    "value":"长方形",
                    "translation":"rectangle"
                }
            ],
            "usage":{
                "value":"",
                "translation":""
            }
        },
        {
            "id":"kao-examine",
            "pinyin":"kǎo",
            "image":"kao-examine.swf",
            "entry":{
                "value":"考",
                "translation":"examine, test, check"
            },
            "words":[
                {
                    "value":"考试",
                    "translation":"examine"
                },
                {
                    "value":"考虑",
                    "translation":"consider, think"
                }
            ],
            "usage":{
                "value":"",
                "translation":""
            }
        },
        {
            "id":"xin-new",
            "pinyin":"xīn",
            "image":"xin-new.swf",
            "entry":{
                "value":"新",
                "translation":"new"
            },
            "words":[
                {
                    "value":"新闻",
                    "translation":"news"
                },
                {
                    "value":"新鲜",
                    "translation":"fresh"
                }
            ],
            "usage":{
                "value":"",
                "translation":""
            }
        },
        {
            "id":"chu-out",
            "pinyin":"chū",
            "image":"chu-out.swf",
            "entry":{
                "value":"出",
                "translation":"to go or come out"
            },
            "words":[
                {
                    "value":"出去",
                    "translation":"go out"
                },
                {
                    "value":"走出",
                    "translation":"walk out"
                }
            ],
            "usage":{
                "value":"",
                "translation":""
            }
        },
        {
            "id":"huan-return",
            "pinyin":"huán",
            "image":"huan-return.swf",
            "entry":{
                "value":"还",
                "translation":"to give back, to return"
            },
            "words":[
                {
                    "value":"还书",
                    "translation":"return book"
                },
                {
                    "value":"还钱",
                    "translation":"pay back"
                }
            ],
            "usage":{
                "value":"",
                "translation":""
            }
        },
        {
            "id":"guo-pass",
            "pinyin":"guò",
            "image":"guo-pass.swf",
            "entry":{
                "value":"过",
                "translation":"to pass"
            },
            "words":[
                {
                    "value":"过期",
                    "translation":"overdue"
                },
                {
                    "value":"过去",
                    "translation":"past"
                }
            ],
            "usage":{
                "value":"",
                "translation":""
            }
        },
        {
            "id":"qi-period",
            "pinyin":"qī",
            "image":"qi-period.swf",
            "entry":{
                "value":"期",
                "translation":"a period of time"
            },
            "words":[
                {
                    "value":"时期",
                    "translation":"era"
                },
                {
                    "value":"期望",
                    "translation":"hope, expect"
                }
            ],
            "usage":{
                "value":"",
                "translation":""
            }
        },
        {
            "id":"fa-punish",
            "pinyin":"fá",
            "image":"fa-punish.swf",
            "entry":{
                "value":"罚",
                "translation":"to punish, to penalize"
            },
            "words":[
                {
                    "value":"罚款",
                    "translation":"fine"
                },
                {
                    "value":"惩罚",
                    "translation":"punish"
                }
            ],
            "usage":{
                "value":"",
                "translation":""
            }
        },
        {
            "id":"kuan-money",
            "pinyin":"kuǎn",
            "image":"kuan-money.swf",
            "entry":{
                "value":"款",
                "translation":"a sum of money, style"
            },
            "words":[
                {
                    "value":"贷款",
                    "translation":"loan"
                },
                {
                    "value":"款式",
                    "translation":"style"
                }
            ],
            "usage":{
                "value":"",
                "translation":""
            }
        },
        {
            "id":"nao-brain",
            "pinyin":"nǎo",
            "image":"nao-brain.swf",
            "entry":{
                "value":"脑",
                "translation":"brain"
            },
            "words":[
                {
                    "value":"大脑",
                    "translation":"brain"
                },
                {
                    "value":"动脑子",
                    "translation":"think"
                }
            ],
            "usage":{
                "value":"",
                "translation":""
            }
        },
        {
            "id":"cha-check",
            "pinyin":"chá",
            "image":"cha-check.swf",
            "entry":{
                "value":"查",
                "translation":"to check, to look up"
            },
            "words":[
                {
                    "value":"检查",
                    "translation":"check"
                },
                {
                    "value":"查找",
                    "translation":"look up"
                }
            ],
            "usage":{
                "value":"",
                "translation":""
            }
        }
    ]
}