
{
    "courseId":"npcr2",
    "lessonId":"20",
    "chapterId":"2",
    "quizletId":"348873350",
    "title":"第20课生词(2)",
    "entries":[
        {
            "id":"To be implemented",
            "pinyin":"huǒ",
            "image":"huo-fire.swf",
            "entry":{
                "value":"火",
                "translation":"fire, heat"
            },
            "words":[
                {
                    "value":"点火",
                    "translation":"start fire"
                }
            ],
            "usage":{
                "value":"TBD",
                "translation":"The words of this lesson are not implemented yet."
            }
        }
    ]
}