
{
    "courseId":"npcr1",
    "lessonId":"04",
    "chapterId":"2",
    "quizletId":"181784857",
    "title":"第四课生词(2)",
    "entries":[
        {
            "id":"yuan-yard",
            "pinyin":"Yuàn",
            "image":"yuan-yard.swf",
            "entry":{
                "value":"院",
                "translation":"yard"
            },
            "words":[
                {
                    "value":"学院",
                    "translation":"college"
                },
                {
                    "value":"医院",
                    "translation":"hospital"
                },
                {
                    "value":"后院",
                    "translation":"back yard"
                }
            ],
            "usage":{
                "value":"昨天他到医院去看病。",
                "translation":"He went to the hospital to see a doctor yesterday."
            }
        },
        {
            "id":"shen-assorted",
            "pinyin":"Shén",
            "image":"shen-assorted.swf",
            "entry":{
                "value":"什",
                "translation":"assorted"
            },
            "words":[
                {
                    "value":"什么",
                    "translation":"what"
                },
                {
                    "value":"为什么",
                    "translation":"why"
                }
            ],
            "usage":{
                "value":"他为什么没来上课",
                "translation":"Why didn't he come to the class?"
            }
        },
        {
            "id":"me-what",
            "pinyin":"Me",
            "image":"me-what.swf",
            "entry":{
                "value":"么",
                "translation":"what"
            },
            "words":[
                {
                    "value":"什么",
                    "translation":"what"
                },
                {
                    "value":"怎么",
                    "translation":"what happened"
                }
            ],
            "usage":{
                "value":"这是怎么了，这么乱？",
                "translation":"What happeded, so messy here."
            }
        },
        {
            "id":"xi-practice",
            "pinyin":"Xí",
            "image":"xi-practice.swf",
            "entry":{
                "value":"习",
                "translation":"practice"
            },
            "words":[
                {
                    "value":"学习",
                    "translation":"study"
                },
                {
                    "value":"练习",
                    "translation":"practice"
                },
                {
                    "value":"习惯",
                    "translation":"habit"
                }
            ],
            "usage":{
                "value":"多练习几遍就好了",
                "translation":"keep practicing, you will be there."
            }
        },
        {
            "id":"han-chinese",
            "pinyin":"Hàn",
            "image":"han-chinese.swf",
            "entry":{
                "value":"汉",
                "translation":"Chinese, man"
            },
            "words":[
                {
                    "value":"汉语",
                    "translation":"Chinese"
                },
                {
                    "value":"好汉",
                    "translation":"hero"
                }
            ],
            "usage":{
                "value":"汉语就是中文。",
                "translation":""
            }
        },
        {
            "id":"shan-hill",
            "pinyin":"Shān",
            "image":"shan-hill.swf",
            "entry":{
                "value":"山",
                "translation":"hill"
            },
            "words":[
                {
                    "value":"高山",
                    "translation":"mountain"
                },
                {
                    "value":"山沟",
                    "translation":"revine"
                }
            ],
            "usage":{
                "value":"山上有很多树。",
                "translation":"There are a lot of trees in the hill."
            }
        },
        {
            "id":"ri-sun",
            "pinyin":"Rì",
            "image":"ri-sun.swf",
            "entry":{
                "value":"日",
                "translation":"sun"
            },
            "words":[
                {
                    "value":"日夜",
                    "translation":"day and night"
                },
                {
                    "value":"日子",
                    "translation":"daily life"
                },
                {
                    "value":"日记",
                    "translation":"diary"
                }
            ],
            "usage":{
                "value":"和从前比，现在的日子要好过多了。",
                "translation":"Life is a lot easier nowadays."
            }
        },
        {
            "id":"yue-moon",
            "pinyin":"Yuè",
            "image":"yue-moon.swf",
            "entry":{
                "value":"月",
                "translation":"moon, month"
            },
            "words":[
                {
                    "value":"月亮",
                    "translation":"moon"
                },
                {
                    "value":"七月",
                    "translation":"July"
                },
                {
                    "value":"月饼",
                    "translation":"moon cake"
                }
            ],
            "usage":{
                "value":"我的生日在十一月，你的生日是几月份？",
                "translation":"My birthday is on November, which month is your birthday on?"
            }
        },
        {
            "id":"mu-eye",
            "pinyin":"Mù",
            "image":"mu-eye.swf",
            "entry":{
                "value":"目",
                "translation":"eye"
            },
            "words":[
                {
                    "value":"目标",
                    "translation":"target, goal"
                },
                {
                    "value":"节目",
                    "translation":"program"
                },
                {
                    "value":"盲目",
                    "translation":"blindly"
                }
            ],
            "usage":{
                "value":"做事应该先有目标。",
                "translation":"Be sure you have a goal before start doing something."
            }
        },
        {
            "id":"yun-cloud",
            "pinyin":"Yūn",
            "image":"yun-cloud.swf",
            "entry":{
                "value":"云",
                "translation":"cloud"
            },
            "words":[
                {
                    "value":"云彩",
                    "translation":"cloud"
                },
                {
                    "value":"云游",
                    "translation":"travelling without a destingnatin"
                }
            ],
            "usage":{
                "value":"蓝天上有几朵白云。",
                "translation":"there are a few clouds in the blue sky."
            }
        }
    ]
}