
{
    "courseId":"npcr1",
    "lessonId":"14",
    "chapterId":"2",
    "quizletId":"181789205",
    "title":"第十四课生词(2)",
    "entries":[
        {
            "id":"liu-stay",
            "pinyin":"Liú",
            "image":"liu-stay.swf",
            "entry":{
                "value":"留",
                "translation":"stay, remain"
            },
            "words":[
                {
                    "value":"留学",
                    "translation":"Study abroad"
                },
                {
                    "value":"停留",
                    "translation":"stay"
                }
            ],
            "usage":{
                "value":"现在有很多年轻人到国外去留学。",
                "translation":"Many young people study abroad nowadays."
            }
        },
        {
            "id":"lou-building",
            "pinyin":"Lóu",
            "image":"lou-building.swf",
            "entry":{
                "value":"楼",
                "translation":"building"
            },
            "words":[
                {
                    "value":"楼房",
                    "translation":"building"
                },
                {
                    "value":"三楼",
                    "translation":"the third floor"
                }
            ],
            "usage":{
                "value":"那座楼房是去年才盖的。",
                "translation":"That building was built last year."
            }
        },
        {
            "id":"nian-read",
            "pinyin":"Niàn",
            "image":"nian-read.swf",
            "entry":{
                "value":"念",
                "translation":"think, read"
            },
            "words":[
                {
                    "value":"想念",
                    "translation":"miss"
                },
                {
                    "value":"念书",
                    "translation":"read, study"
                }
            ],
            "usage":{
                "value":"他出国已经两年了，我们都很想念他。",
                "translation":"He has gone abroad two years, we all missed him."
            }
        },
        {
            "id":"fu-repeat",
            "pinyin":"Fù",
            "image":"fu-repeat.swf",
            "entry":{
                "value":"复",
                "translation":"repeat"
            },
            "words":[
                {
                    "value":"复习",
                    "translation":"review"
                },
                {
                    "value":"重复",
                    "translation":"repeat"
                }
            ],
            "usage":{
                "value":"今天晚上我们一起复习功课。",
                "translation":"Let's review what we have learned tonight."
            }
        },
        {
            "id":"lian-practice",
            "pinyin":"Liàn",
            "image":"lian-practice.swf",
            "entry":{
                "value":"练",
                "translation":"practice"
            },
            "words":[
                {
                    "value":"练习",
                    "translation":"practice"
                },
                {
                    "value":"熟练",
                    "translation":"proficient, skillful"
                }
            ],
            "usage":{
                "value":"你再练一会儿，我马上就回来。",
                "translation":"You keep practicing, I will be right back."
            }
        },
        {
            "id":"fa-law",
            "pinyin":"Fǎ",
            "image":"fa-law.swf",
            "entry":{
                "value":"法",
                "translation":"law, method"
            },
            "words":[
                {
                    "value":"语法",
                    "translation":"grammar"
                },
                {
                    "value":"办法",
                    "translation":"method"
                },
                {
                    "value":"法律",
                    "translation":"law"
                }
            ],
            "usage":{
                "value":"这是个很好的办法。",
                "translation":"This is a good way to go."
            }
        },
        {
            "id":"guo-pass",
            "pinyin":"Guò",
            "image":"guo-pass.swf",
            "entry":{
                "value":"过",
                "translation":"pass, cross"
            },
            "words":[
                {
                    "value":"过去",
                    "translation":"in the past"
                },
                {
                    "value":"做过",
                    "translation":"have done"
                }
            ],
            "usage":{
                "value":"你过去都做过什么工作？",
                "translation":"What have you done in the past?"
            }
        },
        {
            "id":"jie-holiday",
            "pinyin":"Jié",
            "image":"jie-holiday.swf",
            "entry":{
                "value":"节",
                "translation":"holiday, save"
            },
            "words":[
                {
                    "value":"过节",
                    "translation":"holiday"
                },
                {
                    "value":"节约",
                    "translation":"save"
                }
            ],
            "usage":{
                "value":"今年过春节，我们要节约点，少买些东西。",
                "translation":"We need to cut the budget a bit for this Chinese New Year."
            }
        },
        {
            "id":"li-gift",
            "pinyin":"Lǐ",
            "image":"li-gift.swf",
            "entry":{
                "value":"礼",
                "translation":"gift, courtesy"
            },
            "words":[
                {
                    "value":"礼物",
                    "translation":"gift, present"
                },
                {
                    "value":"礼貌",
                    "translation":"courtesy"
                }
            ],
            "usage":{
                "value":"送这么多礼物，你太客气了。",
                "translation":"That is very kind of you to get us so many presents."
            }
        },
        {
            "id":"wu-thing",
            "pinyin":"Wù",
            "image":"wu-thing.swf",
            "entry":{
                "value":"物",
                "translation":"thing, matter"
            },
            "words":[
                {
                    "value":"动物",
                    "translation":"animal"
                },
                {
                    "value":"物理",
                    "translation":"physics"
                }
            ],
            "usage":{
                "value":"他特别喜欢小动物，养得有一只小狗和一只猫。",
                "translation":"He loves pets. He has got a cute dog and a cat."
            }
        },
        {
            "id":"sheng-holy",
            "pinyin":"Shèng",
            "image":"sheng-holy.swf",
            "entry":{
                "value":"圣",
                "translation":"holy, saint"
            },
            "words":[
                {
                    "value":"圣诞",
                    "translation":"Christmas"
                },
                {
                    "value":"圣人",
                    "translation":"saint"
                }
            ],
            "usage":{
                "value":"每年的十二月二十五号是圣诞节。",
                "translation":"Christmas is on Dec. 25 every year."
            }
        },
        {
            "id":"dan-birth",
            "pinyin":"Dàn",
            "image":"dan-birth.swf",
            "entry":{
                "value":"诞",
                "translation":"birth"
            },
            "words":[
                {
                    "value":"圣诞",
                    "translation":"Christmas"
                },
                {
                    "value":"诞生",
                    "translation":"birth"
                }
            ],
            "usage":{
                "value":"每年的十二月二十五号是圣诞节。",
                "translation":"Christmas is on Dec. 25 every year."
            }
        },
        {
            "id":"ou-europe",
            "pinyin":"Ōu",
            "image":"ou-europe.swf",
            "entry":{
                "value":"欧",
                "translation":"Europe"
            },
            "words":[
                {
                    "value":"欧洲",
                    "translation":"Europe"
                }
            ],
            "usage":{
                "value":"欧洲和亚洲挨着。",
                "translation":"Europe is next to Asia."
            }
        },
        {
            "id":"zhou-continent",
            "pinyin":"Zhōu",
            "image":"zhou-continent.swf",
            "entry":{
                "value":"洲",
                "translation":"continent"
            },
            "words":[
                {
                    "value":"亚洲",
                    "translation":"Asia"
                },
                {
                    "value":"美洲",
                    "translation":"Americas"
                }
            ],
            "usage":{
                "value":"亚洲和美洲中间隔着太平洋。",
                "translation":"Between Asia and Americas, there is a Pacific Ocean."
            }
        },
        {
            "id":"hai-sea",
            "pinyin":"Hǎi",
            "image":"hai-sea.swf",
            "entry":{
                "value":"海",
                "translation":"sea"
            },
            "words":[
                {
                    "value":"大海",
                    "translation":"sea"
                },
                {
                    "value":"海洋",
                    "translation":"ocean"
                }
            ],
            "usage":{
                "value":"海水是咸的。",
                "translation":"The sea water is salty."
            }
        }
    ]
}