
{
    "courseId":"npcr1",
    "lessonId":"12",
    "chapterId":"2",
    "quizletId":"181788424",
    "title":"第十二课生词(2)",
    "entries":[
        {
            "id":"xiu-rest",
            "pinyin":"Xiū",
            "image":"xiu-rest.swf",
            "entry":{
                "value":"休",
                "translation":"rest, stop, never"
            },
            "words":[
                {
                    "value":"休息",
                    "translation":"rest"
                },
                {
                    "value":"休想",
                    "translation":"don't even think about it"
                }
            ],
            "usage":{
                "value":"好好休息，明天我们要走远路。",
                "translation":"Take a good rest, we will have a long walk tomorrow."
            }
        },
        {
            "id":"xi-breath",
            "pinyin":"Xi",
            "image":"xi-breath.swf",
            "entry":{
                "value":"息",
                "translation":"breath"
            },
            "words":[
                {
                    "value":"休息",
                    "translation":"rest"
                },
                {
                    "value":"喘息",
                    "translation":"pant"
                }
            ],
            "usage":{
                "value":"先休息一下，一会接着干。",
                "translation":"Take a five, we will continue in a few minutes."
            }
        },
        {
            "id":"gua-hang",
            "pinyin":"Guà",
            "image":"gua-hang.swf",
            "entry":{
                "value":"挂",
                "translation":"hang"
            },
            "words":[
                {
                    "value":"挂号",
                    "translation":"register"
                },
                {
                    "value":"挂钟",
                    "translation":"wall clock"
                }
            ],
            "usage":{
                "value":"在医院挂号，要排很长的队。",
                "translation":"It has a long line to register at hospital."
            }
        },
        {
            "id":"fa-hair",
            "pinyin":"Fā",
            "image":"fa-hair.swf",
            "entry":{
                "value":"发",
                "translation":"hair, issue"
            },
            "words":[
                {
                    "value":"头发",
                    "translation":"hair"
                },
                {
                    "value":"发财",
                    "translation":"make big money"
                }
            ],
            "usage":{
                "value":"她的头发又黑又长。",
                "translation":"Her hair is long and black."
            }
        },
        {
            "id":"yan-inflammation",
            "pinyin":"Yán",
            "image":"yan-inflammation.swf",
            "entry":{
                "value":"炎",
                "translation":"inflammation"
            },
            "words":[
                {
                    "value":"发炎",
                    "translation":"inflammation"
                },
                {
                    "value":"肺炎",
                    "translation":"pneumonia"
                }
            ],
            "usage":{
                "value":"我嗓子发炎了，老是咳嗽。",
                "translation":"My throat is inflamed, so I cough a lot."
            }
        },
        {
            "id":"shao-burn",
            "pinyin":"Shāo",
            "image":"shao-burn.swf",
            "entry":{
                "value":"烧",
                "translation":"burn, fever"
            },
            "words":[
                {
                    "value":"发烧",
                    "translation":"fever"
                },
                {
                    "value":"烧烤",
                    "translation":"barbecue"
                }
            ],
            "usage":{
                "value":"他昨天着凉了，今天开始发烧。",
                "translation":"He caught a cold yesterday and the fever began today."
            }
        },
        {
            "id":"gan-feel",
            "pinyin":"Gǎn",
            "image":"gan-feel.swf",
            "entry":{
                "value":"感",
                "translation":"feel"
            },
            "words":[
                {
                    "value":"感觉",
                    "translation":"feel"
                },
                {
                    "value":"感动",
                    "translation":"be moved"
                }
            ],
            "usage":{
                "value":"你现在感觉好些了吗？",
                "translation":"Do you feel better now?"
            }
        },
        {
            "id":"mao-risk",
            "pinyin":"Mào",
            "image":"mao-risk.swf",
            "entry":{
                "value":"冒",
                "translation":"risk"
            },
            "words":[
                {
                    "value":"感冒",
                    "translation":"flu, cold"
                },
                {
                    "value":"冒险",
                    "translation":"take a risk"
                }
            ],
            "usage":{
                "value":"他的感冒好了吗，怎么还没来上课？",
                "translation":"How is his flu, why is he still not coming to the class?"
            }
        },
        {
            "id":"zhu-live",
            "pinyin":"Zhù",
            "image":"zhu-live.swf",
            "entry":{
                "value":"住",
                "translation":"live, reside"
            },
            "words":[
                {
                    "value":"住院",
                    "translation":"Hospitalized"
                },
                {
                    "value":"居住",
                    "translation":"reside"
                }
            ],
            "usage":{
                "value":"你们家住哪，离这远不远？",
                "translation":"Where do you live, is it far from here?"
            }
        },
        {
            "id":"yao-medicine",
            "pinyin":"Yào",
            "image":"yao-medicine.swf",
            "entry":{
                "value":"药",
                "translation":"medicine"
            },
            "words":[
                {
                    "value":"吃药",
                    "translation":"take medicine"
                },
                {
                    "value":"药房",
                    "translation":"pharmacy"
                }
            ],
            "usage":{
                "value":"你在这等我一会，我到药房去拿药。",
                "translation":"Wait here, I need to go to the pharmacy to get your medicine."
            }
        },
        {
            "id":"yuan-willing",
            "pinyin":"Yuàn",
            "image":"yuan-willing.swf",
            "entry":{
                "value":"愿",
                "translation":"willing"
            },
            "words":[
                {
                    "value":"愿意",
                    "translation":"agree, willing"
                },
                {
                    "value":"心愿",
                    "translation":"wish"
                }
            ],
            "usage":{
                "value":"你要是愿意，就点一下头。",
                "translation":"Just nod if you agree."
            }
        },
        {
            "id":"yi-meaning",
            "pinyin":"Yì",
            "image":"yi-meaning.swf",
            "entry":{
                "value":"意",
                "translation":"meaning"
            },
            "words":[
                {
                    "value":"好意",
                    "translation":"kindness"
                },
                {
                    "value":"意见",
                    "translation":"opinion, idea"
                }
            ],
            "usage":{
                "value":"有意见就说，别老让我们猜。",
                "translation":"Shoot your idea, don't let us guess around."
            }
        },
        {
            "id":"zhong-central",
            "pinyin":"Zhōng",
            "image":"zhong-central.swf",
            "entry":{
                "value":"中",
                "translation":"central, in, during"
            },
            "words":[
                {
                    "value":"中间",
                    "translation":"central, middle"
                },
                {
                    "value":"在 …… 中",
                    "translation":"among"
                },
                {
                    "value":"中国",
                    "translation":"China"
                }
            ],
            "usage":{
                "value":"在我去过的城市中，我最喜欢丹佛。",
                "translation":"Among all the cities I have visited, Denver is my favorite."
            }
        }
    ]
}