
{
    "courseId":"npcr1",
    "lessonId":"11",
    "chapterId":"1",
    "quizletId":"181787874",
    "title":"第十一课生词(1)",
    "entries":[
        {
            "id":"dian-point",
            "pinyin":"Diǎn",
            "image":"dian-point.swf",
            "entry":{
                "value":"点",
                "translation":"point, hour"
            },
            "words":[
                {
                    "value":"三点",
                    "translation":"3 o'clock"
                },
                {
                    "value":"地点",
                    "translation":"place"
                },
                {
                    "value":"优点",
                    "translation":"advantage"
                }
            ],
            "usage":{
                "value":"请问，现在几点了？",
                "translation":"What time is it please?"
            }
        },
        {
            "id":"si-manage",
            "pinyin":"Sī",
            "image":"si-manage.swf",
            "entry":{
                "value":"司",
                "translation":"manage, control"
            },
            "words":[
                {
                    "value":"司机",
                    "translation":"driver"
                },
                {
                    "value":"司令",
                    "translation":"commander"
                }
            ],
            "usage":{
                "value":"这个出租车司机喜欢聊天。",
                "translation":"This texi driver is very chatty."
            }
        },
        {
            "id":"ji-machine",
            "pinyin":"Jī",
            "image":"ji-machine.swf",
            "entry":{
                "value":"机",
                "translation":"machine"
            },
            "words":[
                {
                    "value":"机器",
                    "translation":"machine"
                },
                {
                    "value":"手机",
                    "translation":"cell phone"
                }
            ],
            "usage":{
                "value":"现在几乎人人都有手机。",
                "translation":"Now almost every one has a cell phone."
            }
        },
        {
            "id":"cha-poor",
            "pinyin":"Chà",
            "image":"cha-poor.swf",
            "entry":{
                "value":"差",
                "translation":"poor, short of"
            },
            "words":[
                {
                    "value":"差一点",
                    "translation":"amlost"
                },
                {
                    "value":"差不多",
                    "translation":"is about"
                }
            ],
            "usage":{
                "value":"差一点就晚了。",
                "translation":"We are amlost late."
            }
        },
        {
            "id":"ke-quater",
            "pinyin":"Kè",
            "image":"ke-quater.swf",
            "entry":{
                "value":"刻",
                "translation":"quater, moment"
            },
            "words":[
                {
                    "value":"一刻钟",
                    "translation":"a quater"
                }
            ],
            "usage":{
                "value":"现在是差一刻八点，不着急，我们还有半个小时。",
                "translation":"Now it is a quater to eight. We are good, still have half an hour."
            }
        },
        {
            "id":"hui-return",
            "pinyin":"Huí",
            "image":"hui-return.swf",
            "entry":{
                "value":"回",
                "translation":"return, times"
            },
            "words":[
                {
                    "value":"回家",
                    "translation":"go home"
                },
                {
                    "value":"第二回",
                    "translation":"the second time"
                }
            ],
            "usage":{
                "value":"回家后，先喝点水。",
                "translation":"Have some water when we get back home."
            }
        },
        {
            "id":"neng-able",
            "pinyin":"Néng",
            "image":"neng-able.swf",
            "entry":{
                "value":"能",
                "translation":"be able to, energy"
            },
            "words":[
                {
                    "value":"可能",
                    "translation":"possible"
                },
                {
                    "value":"不能",
                    "translation":"cannot"
                }
            ],
            "usage":{
                "value":"星期天我们有个聚会，你能来吗？",
                "translation":"We will have a party at Sunday, would you come?"
            }
        },
        {
            "id":"dao-arrive",
            "pinyin":"Dào",
            "image":"dao-arrive.swf",
            "entry":{
                "value":"到",
                "translation":"arrive, go to"
            },
            "words":[
                {
                    "value":"迟到",
                    "translation":"late"
                },
                {
                    "value":"到了",
                    "translation":"arrived"
                }
            ],
            "usage":{
                "value":"到家了，把外衣脱下来吧。",
                "translation":"We are home, you may take off your jacket."
            }
        },
        {
            "id":"jiao-teach",
            "pinyin":"Jiāo",
            "image":"jiao-teach.swf",
            "entry":{
                "value":"教",
                "translation":"teach"
            },
            "words":[
                {
                    "value":"教书",
                    "translation":"teach"
                },
                {
                    "value":"教做饭",
                    "translation":"teach how to cook"
                }
            ],
            "usage":{
                "value":"不会不要紧，我来教你。",
                "translation":"Don't warry, I will teach you."
            }
        },
        {
            "id":"sun-grandson",
            "pinyin":"Sūn",
            "image":"sun-grandson.swf",
            "entry":{
                "value":"孙",
                "translation":"grandchild"
            },
            "words":[
                {
                    "value":"孙子",
                    "translation":"grandson"
                },
                {
                    "value":"孙女",
                    "translation":"grand doughter"
                }
            ],
            "usage":{
                "value":"他的小孙子今年都八岁了。",
                "translation":"His little grandson is eight years old this year."
            }
        },
        {
            "id":"sui-year",
            "pinyin":"Suì",
            "image":"sui-year.swf",
            "entry":{
                "value":"岁",
                "translation":"one year"
            },
            "words":[
                {
                    "value":"岁数",
                    "translation":"age"
                },
                {
                    "value":"八岁",
                    "translation":"eight years old"
                }
            ],
            "usage":{
                "value":"他的小孙子今年都八岁了。",
                "translation":"His grandson is eight years old this year."
            }
        },
        {
            "id":"shu-number",
            "pinyin":"Shù",
            "image":"shu-number.swf",
            "entry":{
                "value":"数",
                "translation":"number"
            },
            "words":[
                {
                    "value":"数字",
                    "translation":"number, digit"
                },
                {
                    "value":"数学",
                    "translation":"math"
                }
            ],
            "usage":{
                "value":"现在很多东西都数字化了，如音乐，图像等。",
                "translation":"Many things have been digitalized, like music, image, etc.."
            }
        }
    ]
}