
{
    "courseId":"npcr1",
    "lessonId":"04",
    "chapterId":"1",
    "quizletId":"181784599",
    "title":"第四课生词(1)",
    "entries":[
        {
            "id":"ren-realize",
            "pinyin":"Rèn",
            "image":"ren-realize.swf",
            "entry":{
                "value":"认",
                "translation":"realize"
            },
            "words":[
                {
                    "value":"认识",
                    "translation":"know"
                },
                {
                    "value":"认为",
                    "translation":"think"
                }
            ],
            "usage":{
                "value":"他是谁，我不认识他。",
                "translation":"Who is he? I do not know him."
            }
        },
        {
            "id":"shi-knowledge",
            "pinyin":"Shi",
            "image":"shi-knowledge.swf",
            "entry":{
                "value":"识",
                "translation":"knowledge"
            },
            "words":[
                {
                    "value":"认识",
                    "translation":"know"
                },
                {
                    "value":"知识",
                    "translation":"knowledge"
                }
            ],
            "usage":{
                "value":"我们在学校学知识",
                "translation":"We learn at school."
            }
        },
        {
            "id":"ke-can",
            "pinyin":"Kě",
            "image":"ke-can.swf",
            "entry":{
                "value":"可",
                "translation":"can, may"
            },
            "words":[
                {
                    "value":"可以",
                    "translation":"can, be able to"
                },
                {
                    "value":"可能",
                    "translation":"possible"
                }
            ],
            "usage":{
                "value":"一直在下雨，他可能不会来了",
                "translation":"It is been raining, he may not be coming."
            }
        },
        {
            "id":"yi-with",
            "pinyin":"Yǐ",
            "image":"yi-with.swf",
            "entry":{
                "value":"以",
                "translation":"with, by"
            },
            "words":[
                {
                    "value":"可以",
                    "translation":"can, be able to"
                },
                {
                    "value":"以为",
                    "translation":"think, guess"
                }
            ],
            "usage":{
                "value":"我以为他不会来了",
                "translation":"I thought he would not come."
            }
        },
        {
            "id":"jin-into",
            "pinyin":"Jìn",
            "image":"jin-into.swf",
            "entry":{
                "value":"进",
                "translation":"get in"
            },
            "words":[
                {
                    "value":"进来",
                    "translation":"get in"
                },
                {
                    "value":"进步",
                    "translation":"progress"
                }
            ],
            "usage":{
                "value":"进来吧，请坐。",
                "translation":"Come in and have a seat."
            }
        },
        {
            "id":"lai-come",
            "pinyin":"Lái",
            "image":"lai-come.swf",
            "entry":{
                "value":"来",
                "translation":"come"
            },
            "words":[
                {
                    "value":"回来",
                    "translation":"come back"
                },
                {
                    "value":"原来",
                    "translation":"original"
                }
            ],
            "usage":{
                "value":"我哥哥明天就回来了。",
                "translation":"My brother will be back tomorrow."
            }
        },
        {
            "id":"qing-please",
            "pinyin":"Qǐng",
            "image":"qing-please.swf",
            "entry":{
                "value":"请",
                "translation":"please"
            },
            "words":[
                {
                    "value":"请进",
                    "translation":"come in please"
                },
                {
                    "value":"请客",
                    "translation":"stand treat"
                }
            ],
            "usage":{
                "value":"今天的晚饭我请客。",
                "translation":"The dinner is on me."
            }
        },
        {
            "id":"ji-remember",
            "pinyin":"Jì",
            "image":"ji-remember.swf",
            "entry":{
                "value":"记",
                "translation":"remember, take notes"
            },
            "words":[
                {
                    "value":"记者",
                    "translation":"reporter"
                },
                {
                    "value":"记住",
                    "translation":"memberize"
                },
                {
                    "value":"记忆",
                    "translation":"memory"
                }
            ],
            "usage":{
                "value":"我是学生，我的朋友是个记者。",
                "translation":"I am a student and my friend is a reporter."
            }
        },
        {
            "id":"zhe-person",
            "pinyin":"Zhě",
            "image":"zhe-person.swf",
            "entry":{
                "value":"者",
                "translation":"person, someone"
            },
            "words":[
                {
                    "value":"记者",
                    "translation":"reporter"
                },
                {
                    "value":"或者",
                    "translation":"or"
                }
            ],
            "usage":{
                "value":"我是学生，我的朋友是个记者。",
                "translation":"I am a student and my friend is a reporter."
            }
        },
        {
            "id":"wen-ask",
            "pinyin":"Wèn",
            "image":"wen-ask.swf",
            "entry":{
                "value":"问",
                "translation":"ask, question"
            },
            "words":[
                {
                    "value":"问题",
                    "translation":"question"
                },
                {
                    "value":"问好",
                    "translation":"greeting"
                }
            ],
            "usage":{
                "value":"大家还有问题吗？",
                "translation":"Any questins?"
            }
        },
        {
            "id":"xing-surname",
            "pinyin":"Xìng",
            "image":"xing-surname.swf",
            "entry":{
                "value":"姓",
                "translation":"surname"
            },
            "words":[
                {
                    "value":"姓名",
                    "translation":"full name"
                },
                {
                    "value":"姓王",
                    "translation":"famile name is Wang"
                }
            ],
            "usage":{
                "value":"你姓什么？我姓王。",
                "translation":"What is your family name? Wang."
            }
        },
        {
            "id":"jiao-call",
            "pinyin":"Jiào",
            "image":"jiao-call.swf",
            "entry":{
                "value":"叫",
                "translation":"call, shout"
            },
            "words":[
                {
                    "value":"大叫",
                    "translation":"shout"
                },
                {
                    "value":"叫做",
                    "translation":"to be called"
                }
            ],
            "usage":{
                "value":"你叫什么名字？",
                "translation":"What is your name?"
            }
        },
        {
            "id":"xian-prior",
            "pinyin":"Xiān",
            "image":"xian-prior.swf",
            "entry":{
                "value":"先",
                "translation":"prior, former"
            },
            "words":[
                {
                    "value":"先生",
                    "translation":"Mr., husband"
                },
                {
                    "value":"事先",
                    "translation":"in advance"
                }
            ],
            "usage":{
                "value":"我还有事，先走一步了。",
                "translation":"I have to run now."
            }
        },
        {
            "id":"sheng-raw",
            "pinyin":"Shēng",
            "image":"sheng-raw.swf",
            "entry":{
                "value":"生",
                "translation":"raw"
            },
            "words":[
                {
                    "value":"生命",
                    "translation":"life"
                },
                {
                    "value":"生字",
                    "translation":"new word"
                },
                {
                    "value":"学生",
                    "translation":"student"
                }
            ],
            "usage":{
                "value":"一回生，二回熟，多练几回就好了。",
                "translation":"Practice makes perfect. Just keep practicing!"
            }
        }
    ]
}