
{
    "courseId":"npcr1",
    "lessonId":"10",
    "chapterId":"1",
    "quizletId":"181787485",
    "title":"第十课生词(1)",
    "entries":[
        {
            "id":"guang-light",
            "pinyin":"Guāng",
            "image":"guang-light.swf",
            "entry":{
                "value":"光",
                "translation":"light, empty"
            },
            "words":[
                {
                    "value":"光盘",
                    "translation":"CD"
                },
                {
                    "value":"灯光",
                    "translation":"light"
                },
                {
                    "value":"用光",
                    "translation":"used up"
                }
            ],
            "usage":{
                "value":"家里的灯光很好。",
                "translation":"The lights at home are very good."
            }
        },
        {
            "id":"pan-plate",
            "pinyin":"Pán",
            "image":"pan-plate.swf",
            "entry":{
                "value":"盘",
                "translation":"plate, disk"
            },
            "words":[
                {
                    "value":"光盘",
                    "translation":"CD"
                },
                {
                    "value":"盘子",
                    "translation":"plate"
                }
            ],
            "usage":{
                "value":"家里还有一盘饺子。",
                "translation":"We still have a plate of dumpings."
            }
        },
        {
            "id":"yin-sound",
            "pinyin":"Yīn",
            "image":"yin-sound.swf",
            "entry":{
                "value":"音",
                "translation":"sound"
            },
            "words":[
                {
                    "value":"音乐",
                    "translation":"music"
                },
                {
                    "value":"声音",
                    "translation":"sound"
                }
            ],
            "usage":{
                "value":"电影的名字是：音乐之声。",
                "translation":"The movie is: Sound of Music."
            }
        },
        {
            "id":"yue-music",
            "pinyin":"Yuè",
            "image":"yue-music.swf",
            "entry":{
                "value":"乐",
                "translation":"music"
            },
            "words":[
                {
                    "value":"音乐",
                    "translation":"music"
                },
                {
                    "value":"乐器",
                    "translation":"music instrument"
                }
            ],
            "usage":{
                "value":"你会玩什么乐器？",
                "translation":"Do you play any music instrument?"
            }
        },
        {
            "id":"shang-business",
            "pinyin":"Shāng",
            "image":"shang-business.swf",
            "entry":{
                "value":"商",
                "translation":"business"
            },
            "words":[
                {
                    "value":"商场",
                    "translation":"store"
                },
                {
                    "value":"经商",
                    "translation":"do business with"
                }
            ],
            "usage":{
                "value":"吃完饭，我们去逛商场吧？",
                "translation":"Let's go shopping after lunch."
            }
        },
        {
            "id":"chang-field",
            "pinyin":"Chǎng",
            "image":"chang-field.swf",
            "entry":{
                "value":"场",
                "translation":"field"
            },
            "words":[
                {
                    "value":"蓝球场",
                    "translation":"basketball court"
                },
                {
                    "value":"广场",
                    "translation":"square"
                }
            ],
            "usage":{
                "value":"北京的天安门广场很大。",
                "translation":"Beijing Tiananmen square is huge."
            }
        },
        {
            "id":"chang-often",
            "pinyin":"Cháng",
            "image":"chang-often.swf",
            "entry":{
                "value":"常",
                "translation":"often， in general"
            },
            "words":[
                {
                    "value":"经常",
                    "translation":"often"
                },
                {
                    "value":"平常",
                    "translation":"usually"
                }
            ],
            "usage":{
                "value":"我经常到这家餐厅吃饭。",
                "translation":"I come to this restaurant often."
            }
        },
        {
            "id":"gen-with",
            "pinyin":"Gēn",
            "image":"gen-with.swf",
            "entry":{
                "value":"跟",
                "translation":"with, follow"
            },
            "words":[
                {
                    "value":"跟着",
                    "translation":"follow"
                },
                {
                    "value":"脚跟",
                    "translation":"heel"
                }
            ],
            "usage":{
                "value":"跟我来，我给你看样东西。",
                "translation":"Follow me, let me show you something."
            }
        },
        {
            "id":"shu-book",
            "pinyin":"Shū",
            "image":"shu-book.swf",
            "entry":{
                "value":"书",
                "translation":"book"
            },
            "words":[
                {
                    "value":"读书",
                    "translation":"read a book"
                },
                {
                    "value":"写书",
                    "translation":"write a book"
                }
            ],
            "usage":{
                "value":"我今年要读十本书。",
                "translation":"I plan to read ten books this year."
            }
        },
        {
            "id":"bao-newspaper",
            "pinyin":"Bào",
            "image":"bao-newspaper.swf",
            "entry":{
                "value":"报",
                "translation":"newspaper, report"
            },
            "words":[
                {
                    "value":"报纸",
                    "translation":"newspaper"
                },
                {
                    "value":"报告",
                    "translation":"report"
                }
            ],
            "usage":{
                "value":"现在人们都不看报纸了。",
                "translation":"People do not read newspaper any more nowadays."
            }
        },
        {
            "id":"ben-origin",
            "pinyin":"Běn",
            "image":"ben-origin.swf",
            "entry":{
                "value":"本",
                "translation":"origin"
            },
            "words":[
                {
                    "value":"本子",
                    "translation":"note book"
                },
                {
                    "value":"本来",
                    "translation":"originally"
                }
            ],
            "usage":{
                "value":"一本书，两张报纸，三个本子。",
                "translation":"A book, two pieces of newspaper and three note books."
            }
        },
        {
            "id":"liang-beam",
            "pinyin":"Liáng",
            "image":"liang-beam.swf",
            "entry":{
                "value":"梁",
                "translation":"beam, family name"
            },
            "words":[
                {
                    "value":"梁祝",
                    "translation":"Butterfly Lovers. Liang and Zhu are family names of the main characters in the story"
                },
                {
                    "value":"房梁",
                    "translation":"beam"
                }
            ],
            "usage":{
                "value":"梁祝是一首很有名的音乐作品。",
                "translation":"Butterfly Lovers"
            }
        }
    ]
}