
{
    "courseId":"npcr1",
    "lessonId":"12",
    "chapterId":"1",
    "quizletId":"181788236",
    "title":"第十二课生词(1)",
    "entries":[
        {
            "id":"quan-whole",
            "pinyin":"Quán",
            "image":"quan-whole.swf",
            "entry":{
                "value":"全",
                "translation":"whole, full"
            },
            "words":[
                {
                    "value":"全身",
                    "translation":"whole body"
                },
                {
                    "value":"安全",
                    "translation":"safe"
                }
            ],
            "usage":{
                "value":"开了十个小时的车，终于安全到家了",
                "translation":"Finally we are home safely after 10 hours driving."
            }
        },
        {
            "id":"shen-body",
            "pinyin":"Shēn",
            "image":"shen-body.swf",
            "entry":{
                "value":"身",
                "translation":"body"
            },
            "words":[
                {
                    "value":"身体",
                    "translation":"body"
                },
                {
                    "value":"身边",
                    "translation":"around"
                }
            ],
            "usage":{
                "value":"他的身体非常好，从来不生病。",
                "translation":"He has a good health, never gets sick."
            }
        },
        {
            "id":"shu-relax",
            "pinyin":"Shū",
            "image":"shu-relax.swf",
            "entry":{
                "value":"舒",
                "translation":"relax, comfortable"
            },
            "words":[
                {
                    "value":"舒服",
                    "translation":"comfortable"
                },
                {
                    "value":"舒展",
                    "translation":"stretch"
                }
            ],
            "usage":{
                "value":"睡了一大觉，现在感觉舒服多了。",
                "translation":"I had a nice sleep, feel much better now."
            }
        },
        {
            "id":"fu-cloth",
            "pinyin":"Fú",
            "image":"fu-cloth.swf",
            "entry":{
                "value":"服",
                "translation":"cloth, serve"
            },
            "words":[
                {
                    "value":"服装",
                    "translation":"cloth"
                },
                {
                    "value":"服务",
                    "translation":"serve"
                }
            ],
            "usage":{
                "value":"这是个专卖服装的商店。",
                "translation":"This is a clothing store."
            }
        },
        {
            "id":"duan-forge",
            "pinyin":"Duàn",
            "image":"duan-forge.swf",
            "entry":{
                "value":"锻",
                "translation":"forge"
            },
            "words":[
                {
                    "value":"锻炼",
                    "translation":"exercise, work out"
                }
            ],
            "usage":{
                "value":"我每天早上锻炼半个小时的身体。",
                "translation":"Every morning I work out about half an hour."
            }
        },
        {
            "id":"lian-refine",
            "pinyin":"Liàn",
            "image":"lian-refine.swf",
            "entry":{
                "value":"炼",
                "translation":"refine"
            },
            "words":[
                {
                    "value":"锻炼",
                    "translation":"exercise, work out"
                },
                {
                    "value":"炼钢",
                    "translation":"Steelmaking"
                }
            ],
            "usage":{
                "value":"经常锻炼身体有利健康。",
                "translation":"Exercising often is good to you health."
            }
        },
        {
            "id":"tou-head",
            "pinyin":"Tóu",
            "image":"tou-head.swf",
            "entry":{
                "value":"头",
                "translation":"head"
            },
            "words":[
                {
                    "value":"头疼",
                    "translation":"headache"
                },
                {
                    "value":"头发",
                    "translation":"hair"
                }
            ],
            "usage":{
                "value":"今天我头疼，不能上学去了。",
                "translation":"Cannot go to school today as I'm having a headache"
            }
        },
        {
            "id":"teng-pain",
            "pinyin":"Téng",
            "image":"teng-pain.swf",
            "entry":{
                "value":"疼",
                "translation":"pain"
            },
            "words":[
                {
                    "value":"心疼",
                    "translation":"distressed"
                },
                {
                    "value":"头疼",
                    "translation":"headache"
                }
            ],
            "usage":{
                "value":"见他生病，不舒服，我很心疼。",
                "translation":"I feel sorry for him to he is sick and suffering"
            }
        },
        {
            "id":"sang-throat",
            "pinyin":"Sǎng",
            "image":"sang-throat.swf",
            "entry":{
                "value":"嗓",
                "translation":"throat"
            },
            "words":[
                {
                    "value":"嗓子",
                    "translation":"throat"
                },
                {
                    "value":"嗓音",
                    "translation":"voice"
                }
            ],
            "usage":{
                "value":"他的嗓音不错，唱歌很好听。",
                "translation":"He has a good voice and sings well."
            }
        },
        {
            "id":"xiang-think",
            "pinyin":"Xiǎng",
            "image":"xiang-think.swf",
            "entry":{
                "value":"想",
                "translation":"think"
            },
            "words":[
                {
                    "value":"想法",
                    "translation":"think"
                },
                {
                    "value":"思想",
                    "translation":"thought"
                }
            ],
            "usage":{
                "value":"我们都说完了，你是怎么想的？",
                "translation":"That's all we have, what's your thought."
            }
        },
        {
            "id":"bing-disease",
            "pinyin":"Bìng",
            "image":"bing-disease.swf",
            "entry":{
                "value":"病",
                "translation":"disease"
            },
            "words":[
                {
                    "value":"生病",
                    "translation":"get sick"
                },
                {
                    "value":"病人",
                    "translation":"patient"
                }
            ],
            "usage":{
                "value":"穿暖和点，小心生病。",
                "translation":"Put on a heavy jacket, don't get sick."
            }
        },
        {
            "id":"ti-body",
            "pinyin":"Tǐ",
            "image":"ti-body.swf",
            "entry":{
                "value":"体",
                "translation":"body"
            },
            "words":[
                {
                    "value":"身体",
                    "translation":"body"
                },
                {
                    "value":"体力",
                    "translation":"physical strength"
                }
            ],
            "usage":{
                "value":"他的技术很好，就是体力不行。",
                "translation":"He is very skillfull, but doesn't have a good physical strength."
            }
        },
        {
            "id":"leng-cold",
            "pinyin":"Lěng",
            "image":"leng-cold.swf",
            "entry":{
                "value":"冷",
                "translation":"cold"
            },
            "words":[
                {
                    "value":"寒冷",
                    "translation":"very cold"
                },
                {
                    "value":"冷静",
                    "translation":"calm, cool"
                }
            ],
            "usage":{
                "value":"天气太冷了，我们要多穿些衣服。",
                "translation":"it is very cold, we need to wear a heavy jacket."
            }
        },
        {
            "id":"chuan-wear",
            "pinyin":"Chuān",
            "image":"chuan-wear.swf",
            "entry":{
                "value":"穿",
                "translation":"wear, go through"
            },
            "words":[
                {
                    "value":"穿衣服",
                    "translation":"wear"
                },
                {
                    "value":"穿过",
                    "translation":"go through, pass"
                }
            ],
            "usage":{
                "value":"穿上鞋，戴好帽子，我们要出发了。",
                "translation":"Put on the shoes and hat, let's go now."
            }
        },
        {
            "id":"yi-cloth",
            "pinyin":"Yī",
            "image":"yi-cloth.swf",
            "entry":{
                "value":"衣",
                "translation":"cloth, dress"
            },
            "words":[
                {
                    "value":"衣服",
                    "translation":"cloth"
                },
                {
                    "value":"外衣",
                    "translation":"outer clothing"
                },
                {
                    "value":"内衣",
                    "translation":"underwear"
                }
            ],
            "usage":{
                "value":"她有很多衣服，可不知道穿该哪一件。",
                "translation":"She has a lot of dresses, just doesn't know which on to wear."
            }
        }
    ]
}