
{
    "courseId":"npcr1",
    "lessonId":"13",
    "chapterId":"2",
    "quizletId":"181788856",
    "title":"第十三课生词(2)",
    "entries":[
        {
            "id":"ban-do",
            "pinyin":"Bàn",
            "image":"ban-do.swf",
            "entry":{
                "value":"办",
                "translation":"do, process"
            },
            "words":[
                {
                    "value":"办法",
                    "translation":"method, way"
                },
                {
                    "value":"办事",
                    "translation":"work"
                }
            ],
            "usage":{
                "value":"你一定想办法把他请来。",
                "translation":"Whatever it takes, you get him here."
            }
        },
        {
            "id":"hua-words",
            "pinyin":"Huà",
            "image":"hua-words.swf",
            "entry":{
                "value":"话",
                "translation":"words, talk"
            },
            "words":[
                {
                    "value":"说话",
                    "translation":"talk"
                },
                {
                    "value":"对话",
                    "translation":"dialogue"
                }
            ],
            "usage":{
                "value":"别说话了，现在开会了。",
                "translation":"Pay attention please, let's start."
            }
        },
        {
            "id":"rang-let",
            "pinyin":"Ràng",
            "image":"rang-let.swf",
            "entry":{
                "value":"让",
                "translation":"let"
            },
            "words":[
                {
                    "value":"让路",
                    "translation":"give way"
                },
                {
                    "value":"谦让",
                    "translation":"humility"
                }
            ],
            "usage":{
                "value":"让老人先过去。",
                "translation":"Please let the seniors go first."
            }
        },
        {
            "id":"bang-help",
            "pinyin":"Bāng",
            "image":"bang-help.swf",
            "entry":{
                "value":"帮",
                "translation":"help"
            },
            "words":[
                {
                    "value":"帮助",
                    "translation":"help"
                },
                {
                    "value":"帮手",
                    "translation":"asistant"
                }
            ],
            "usage":{
                "value":"要是没有他的帮助，我做不成这件事。",
                "translation":"I could not do this without his help."
            }
        },
        {
            "id":"zhu-assist",
            "pinyin":"Zhù",
            "image":"zhu-assist.swf",
            "entry":{
                "value":"助",
                "translation":"assist"
            },
            "words":[
                {
                    "value":"助手",
                    "translation":"asistant"
                },
                {
                    "value":"求助",
                    "translation":"seek help"
                }
            ],
            "usage":{
                "value":"坐在那边的就是他的助手。",
                "translation":"That's his asistant who is sitting there."
            }
        },
        {
            "id":"wei-feed",
            "pinyin":"Wèi",
            "image":"wei-feed.swf",
            "entry":{
                "value":"喂",
                "translation":"feed, hello"
            },
            "words":[
                {
                    "value":"喂",
                    "translation":"feed, hello"
                },
                {
                    "value":"喂饭",
                    "translation":"feed"
                }
            ],
            "usage":{
                "value":"喂，你该给小孩喂奶了。",
                "translation":"Hey, it is time to feed the baby."
            }
        },
        {
            "id":"wei-position",
            "pinyin":"Wèi",
            "image":"wei-position.swf",
            "entry":{
                "value":"位",
                "translation":"position, digit, messure word"
            },
            "words":[
                {
                    "value":"哪一位",
                    "translation":"who is it"
                },
                {
                    "value":"位置",
                    "translation":"position"
                },
                {
                    "value":"座位",
                    "translation":"seat"
                }
            ],
            "usage":{
                "value":"你好，你们一共几位？",
                "translation":"Hello, how many of you?"
            }
        },
        {
            "id":"jing-through",
            "pinyin":"Jīng",
            "image":"jing-through.swf",
            "entry":{
                "value":"经",
                "translation":"through"
            },
            "words":[
                {
                    "value":"经理",
                    "translation":"manager"
                },
                {
                    "value":"经验",
                    "translation":"experience"
                }
            ],
            "usage":{
                "value":"他是一位很有经验的经理。",
                "translation":"He is a very experienced manager."
            }
        },
        {
            "id":"li-manage",
            "pinyin":"Lǐ",
            "image":"li-manage.swf",
            "entry":{
                "value":"理",
                "translation":"manage, logic"
            },
            "words":[
                {
                    "value":"道理",
                    "translation":"reason, principle"
                },
                {
                    "value":"理论",
                    "translation":"theory"
                }
            ],
            "usage":{
                "value":"你怎么能这么做，还讲不讲道理了。",
                "translation":"How could you do that, it is ridiculous."
            }
        },
        {
            "id":"fan-meal",
            "pinyin":"Fàn",
            "image":"fan-meal.swf",
            "entry":{
                "value":"饭",
                "translation":"meal, food"
            },
            "words":[
                {
                    "value":"吃饭",
                    "translation":"have a meal"
                },
                {
                    "value":"饭碗",
                    "translation":"bowl"
                }
            ],
            "usage":{
                "value":"今天晚上到外面去吃饭，我请客。",
                "translation":"We will go out for dinner, my treat."
            }
        },
        {
            "id":"deng-wait",
            "pinyin":"Děng",
            "image":"deng-wait.swf",
            "entry":{
                "value":"等",
                "translation":"wait, equal"
            },
            "words":[
                {
                    "value":"等待",
                    "translation":"wait"
                },
                {
                    "value":"等于",
                    "translation":"equal"
                }
            ],
            "usage":{
                "value":"三加三等于六。",
                "translation":"Three plus three equals six."
            }
        }
    ]
}