
{
    "courseId":"npcr1",
    "lessonId":"06",
    "chapterId":"2",
    "quizletId":"181785790",
    "title":"第六课生词(2)",
    "entries":[
        {
            "id":"ming-bright",
            "pinyin":"Míng",
            "image":"ming-bright.swf",
            "entry":{
                "value":"明",
                "translation":"bright, next"
            },
            "words":[
                {
                    "value":"明天",
                    "translation":"tomorrow"
                },
                {
                    "value":"明亮",
                    "translation":"bright"
                }
            ],
            "usage":{
                "value":"明天我就要毕业了",
                "translation":"I will graduate tomorrow."
            }
        },
        {
            "id":"jian-between",
            "pinyin":"Jiān",
            "image":"jian-between.swf",
            "entry":{
                "value":"间",
                "translation":"between"
            },
            "words":[
                {
                    "value":"时间",
                    "translation":"time"
                },
                {
                    "value":"房间",
                    "translation":"room"
                }
            ],
            "usage":{
                "value":"时间过得真快。",
                "translation":"The time flies."
            }
        },
        {
            "id":"shuo-talk",
            "pinyin":"Shuō",
            "image":"shuo-talk.swf",
            "entry":{
                "value":"说",
                "translation":"talk, say"
            },
            "words":[
                {
                    "value":"说话",
                    "translation":"say"
                },
                {
                    "value":"胡说",
                    "translation":"nonsense"
                }
            ],
            "usage":{
                "value":"他一边说话，一边喝了口水。",
                "translation":"He took a sip of water while talking."
            }
        },
        {
            "id":"bian-all",
            "pinyin":"Biàn",
            "image":"bian-all.swf",
            "entry":{
                "value":"遍",
                "translation":"all, everywhere"
            },
            "words":[
                {
                    "value":"一遍",
                    "translation":"one time"
                }
            ],
            "usage":{
                "value":"这本书很好，我上个星期又看了一遍。",
                "translation":"This is a good book and I red it again last week."
            }
        },
        {
            "id":"da-beat",
            "pinyin":"Dǎ",
            "image":"da-beat.swf",
            "entry":{
                "value":"打",
                "translation":"beat, fight, break"
            },
            "words":[
                {
                    "value":"打球",
                    "translation":"play ball"
                },
                {
                    "value":"打算",
                    "translation":"plan"
                },
                {
                    "value":"打架",
                    "translation":"fight"
                }
            ],
            "usage":{
                "value":"喜欢打篮球吗？不喜欢，我喜欢打冰球。",
                "translation":"Do you like to play basketball? No, but I like hockey."
            }
        },
        {
            "id":"qiu-ball",
            "pinyin":"Qiú",
            "image":"qiu-ball.swf",
            "entry":{
                "value":"球",
                "translation":"ball"
            },
            "words":[
                {
                    "value":"篮球",
                    "translation":"basketball"
                },
                {
                    "value":"球赛",
                    "translation":"ball game"
                }
            ],
            "usage":{
                "value":"那场球赛什么时候开始？",
                "translation":"When will the game start?"
            }
        },
        {
            "id":"bao-hold",
            "pinyin":"Bào",
            "image":"bao-hold.swf",
            "entry":{
                "value":"抱",
                "translation":"hold, hug"
            },
            "words":[
                {
                    "value":"抱歉",
                    "translation":"apologize"
                },
                {
                    "value":"拥抱",
                    "translation":"hug"
                }
            ],
            "usage":{
                "value":"她一弯腰，把小孩抱了起来。",
                "translation":"She bended over to pick up the kid."
            }
        },
        {
            "id":"qian-apologize",
            "pinyin":"Qiàn",
            "image":"qian-apologize.swf",
            "entry":{
                "value":"歉",
                "translation":"apologize, deficient"
            },
            "words":[
                {
                    "value":"抱歉",
                    "translation":"apologize"
                },
                {
                    "value":"歉意",
                    "translation":"regret"
                }
            ],
            "usage":{
                "value":"很抱歉，我不能喝酒。",
                "translation":"Sorry, I cannot drink."
            }
        },
        {
            "id":"kong-fear",
            "pinyin":"Kǒng",
            "image":"kong-fear.swf",
            "entry":{
                "value":"恐",
                "translation":"fear, be afraid"
            },
            "words":[
                {
                    "value":"恐怕",
                    "translation":"be afraid"
                },
                {
                    "value":"恐龙",
                    "translation":"dinosaur"
                }
            ],
            "usage":{
                "value":"这样恐怕不行，他会不高兴的。",
                "translation":"I am afraid it will make him unhappy if we do this."
            }
        },
        {
            "id":"pa-fear",
            "pinyin":"Pà",
            "image":"pa-fear.swf",
            "entry":{
                "value":"怕",
                "translation":"fear, be afraid"
            },
            "words":[
                {
                    "value":"害怕",
                    "translation":"fear"
                },
                {
                    "value":"怕黑",
                    "translation":"afraid of dark"
                }
            ],
            "usage":{
                "value":"别害怕，慢慢来，你可以做好的。",
                "translation":"Do not be afraid, just be patient, you can do this."
            }
        },
        {
            "id":"xing-walk",
            "pinyin":"Xíng",
            "image":"xing-walk.swf",
            "entry":{
                "value":"行",
                "translation":"walk, capable"
            },
            "words":[
                {
                    "value":"不行",
                    "translation":"cannot"
                },
                {
                    "value":"旅行",
                    "translation":"travel"
                }
            ],
            "usage":{
                "value":"不行就算了，我再找别人。",
                "translation":"It is OK if you cannot do it, I will get someone else."
            }
        }
    ]
}