
{
    "courseId":"npcr1",
    "lessonId":"07",
    "chapterId":"2",
    "quizletId":"181786251",
    "title":"第七课生词(2)",
    "entries":[
        {
            "id":"jie-referral",
            "pinyin":"Jiè",
            "image":"jie-referral.swf",
            "entry":{
                "value":"介",
                "translation":"referral"
            },
            "words":[
                {
                    "value":"介绍",
                    "translation":"introduce"
                },
                {
                    "value":"中介",
                    "translation":"intermediary, agent"
                }
            ],
            "usage":{
                "value":"我来介绍你认识他",
                "translation":"Let me introduce you to him."
            }
        },
        {
            "id":"shao-introduce",
            "pinyin":"Shào",
            "image":"shao-introduce.swf",
            "entry":{
                "value":"绍",
                "translation":"introduce"
            },
            "words":[
                {
                    "value":"介绍",
                    "translation":"introduce"
                },
                {
                    "value":"介绍",
                    "translation":"introduce"
                }
            ],
            "usage":{
                "value":"我来介绍你认识他。",
                "translation":"Let me introduce you to him."
            }
        },
        {
            "id":"zi-character",
            "pinyin":"Zì",
            "image":"zi-character.swf",
            "entry":{
                "value":"字",
                "translation":"character"
            },
            "words":[
                {
                    "value":"名字",
                    "translation":"name"
                },
                {
                    "value":"文字",
                    "translation":"text"
                },
                {
                    "value":"数字",
                    "translation":"number"
                }
            ],
            "usage":{
                "value":"你有一个很好的名字。",
                "translation":"You have a nice name."
            }
        },
        {
            "id":"zhuan-specific",
            "pinyin":"Zhuān",
            "image":"zhuan-specific.swf",
            "entry":{
                "value":"专",
                "translation":"specific"
            },
            "words":[
                {
                    "value":"专业",
                    "translation":"major"
                },
                {
                    "value":"专门",
                    "translation":"specific"
                }
            ],
            "usage":{
                "value":"这本书很好，是专门讲旅游的。",
                "translation":"This is a good book about traveling."
            }
        },
        {
            "id":"ye-business",
            "pinyin":"Yè",
            "image":"ye-business.swf",
            "entry":{
                "value":"业",
                "translation":"business, industory"
            },
            "words":[
                {
                    "value":"失业",
                    "translation":"unemployed"
                },
                {
                    "value":"毕业",
                    "translation":"graduate"
                }
            ],
            "usage":{
                "value":"马上就毕业了。",
                "translation":"I will graduate soon."
            }
        },
        {
            "id":"mei-beauty",
            "pinyin":"Měi",
            "image":"mei-beauty.swf",
            "entry":{
                "value":"美",
                "translation":"beauty, pretty"
            },
            "words":[
                {
                    "value":"美丽",
                    "translation":"beauty"
                },
                {
                    "value":"美国",
                    "translation":"U.S.A."
                }
            ],
            "usage":{
                "value":"照片上的那个美丽的女孩是谁？",
                "translation":"Who is that beautful girl in the photo?"
            }
        },
        {
            "id":"shu-technique",
            "pinyin":"Shù",
            "image":"shu-technique.swf",
            "entry":{
                "value":"术",
                "translation":"technique"
            },
            "words":[
                {
                    "value":"美术",
                    "translation":"art, painting"
                },
                {
                    "value":"技术",
                    "translation":"technique"
                }
            ],
            "usage":{
                "value":"这是个技术问题。",
                "translation":"This is a technial issue."
            }
        },
        {
            "id":"wen-text",
            "pinyin":"Wén",
            "image":"wen-text.swf",
            "entry":{
                "value":"文",
                "translation":"text, article"
            },
            "words":[
                {
                    "value":"文学",
                    "translation":"literature"
                },
                {
                    "value":"文章",
                    "translation":"article"
                }
            ],
            "usage":{
                "value":"他写得一手好文章。",
                "translation":"He is very good at writing."
            }
        },
        {
            "id":"xi-department",
            "pinyin":"Xì",
            "image":"xi-department.swf",
            "entry":{
                "value":"系",
                "translation":"department, a series of"
            },
            "words":[
                {
                    "value":"外语系",
                    "translation":"Department of Foreign Languages"
                },
                {
                    "value":"系列",
                    "translation":"a series of"
                }
            ],
            "usage":{
                "value":"外语系，中文系，数学系。",
                "translation":"Departments of Foreign Language, Chinese, Mathematics"
            }
        },
        {
            "id":"er-ear",
            "pinyin":"ěr",
            "image":"er-ear.swf",
            "entry":{
                "value":"耳",
                "translation":"ear"
            },
            "words":[
                {
                    "value":"耳朵",
                    "translation":"ear"
                },
                {
                    "value":"木耳",
                    "translation":"wood ears, fungus"
                }
            ],
            "usage":{
                "value":"他有一双大耳朵。",
                "translation":"He has a pair of big ears."
            }
        },
        {
            "id":"jia-home",
            "pinyin":"Jiā",
            "image":"jia-home.swf",
            "entry":{
                "value":"家",
                "translation":"home"
            },
            "words":[
                {
                    "value":"回家",
                    "translation":"go home"
                },
                {
                    "value":"家长",
                    "translation":"parents"
                },
                {
                    "value":"大家",
                    "translation":"everyone"
                }
            ],
            "usage":{
                "value":"在回家的路上，我买了些水果。",
                "translation":"I bought some fruits on my way home."
            }
        }
    ]
}