
{
    "courseId":"npcr1",
    "lessonId":"05",
    "chapterId":"1",
    "quizletId":"181785121",
    "title":"第五课生词(1)",
    "entries":[
        {
            "id":"can-meal",
            "pinyin":"Cān",
            "image":"can-meal.swf",
            "entry":{
                "value":"餐",
                "translation":"meal"
            },
            "words":[
                {
                    "value":"餐厅",
                    "translation":"restaurant,cafeteria"
                },
                {
                    "value":"晚餐",
                    "translation":"supper"
                }
            ],
            "usage":{
                "value":"晚餐吃什么？",
                "translation":"What do we have for the supper."
            }
        },
        {
            "id":"ting-hall",
            "pinyin":"Tīng",
            "image":"ting-hall.swf",
            "entry":{
                "value":"厅",
                "translation":"hall"
            },
            "words":[
                {
                    "value":"餐厅",
                    "translation":"cafeteria"
                },
                {
                    "value":"客厅",
                    "translation":"living room"
                }
            ],
            "usage":{
                "value":"请客人在客厅坐",
                "translation":"Ask the guests to have a seat in the living room."
            }
        },
        {
            "id":"zai-exist",
            "pinyin":"Zài",
            "image":"zai-exist.swf",
            "entry":{
                "value":"在",
                "translation":"at, be, exist"
            },
            "words":[
                {
                    "value":"在哪",
                    "translation":"where is it"
                },
                {
                    "value":"存在",
                    "translation":"exist"
                }
            ],
            "usage":{
                "value":"厕所在哪？往前走，就在那边",
                "translation":"Where is the rest room? Go straight, right there."
            }
        },
        {
            "id":"su-night",
            "pinyin":"Sù",
            "image":"su-night.swf",
            "entry":{
                "value":"宿",
                "translation":"night, lodge"
            },
            "words":[
                {
                    "value":"宿舍",
                    "translation":"dorm"
                },
                {
                    "value":"住宿",
                    "translation":"lodge for a night"
                }
            ],
            "usage":{
                "value":"你的宿舍很大，住几个人？",
                "translation":"Your dorm is pretty big, how many roommates do you have?"
            }
        },
        {
            "id":"she-house",
            "pinyin":"Shè",
            "image":"she-house.swf",
            "entry":{
                "value":"舍",
                "translation":"house, hut"
            },
            "words":[
                {
                    "value":"宿舍",
                    "translation":"dorm"
                },
                {
                    "value":"农舍",
                    "translation":"farmhouse"
                }
            ],
            "usage":{
                "value":"学生宿舍不远，就在南边。",
                "translation":"The student dorm is not very far, just go south from here."
            }
        },
        {
            "id":"nu-famale",
            "pinyin":"Nǚ",
            "image":"nu-famale.swf",
            "entry":{
                "value":"女",
                "translation":"famale"
            },
            "words":[
                {
                    "value":"女生",
                    "translation":"girls"
                },
                {
                    "value":"女厕所",
                    "translation":"lady's room"
                }
            ],
            "usage":{
                "value":"我们班有十二个女生。",
                "translation":"Our class has 12 girls."
            }
        },
        {
            "id":"zuo-sit",
            "pinyin":"Zuò",
            "image":"zuo-sit.swf",
            "entry":{
                "value":"坐",
                "translation":"sit"
            },
            "words":[
                {
                    "value":"坐下",
                    "translation":"sit down"
                },
                {
                    "value":"坐车",
                    "translation":"take a bus/car"
                }
            ],
            "usage":{
                "value":"咱们骑车去还是坐车去？",
                "translation":"How do we go there, by bus or by bike?"
            }
        },
        {
            "id":"xie-thank",
            "pinyin":"Xiè",
            "image":"xie-thank.swf",
            "entry":{
                "value":"谢",
                "translation":"thank"
            },
            "words":[
                {
                    "value":"谢谢",
                    "translation":"thank you"
                },
                {
                    "value":"谢幕",
                    "translation":"take a bow"
                }
            ],
            "usage":{
                "value":"太谢谢你了。别客气。",
                "translation":"Thanks a lot. You are welcome."
            }
        },
        {
            "id":"dui-correct",
            "pinyin":"Duì",
            "image":"dui-correct.swf",
            "entry":{
                "value":"对",
                "translation":"correct, pair, opposite"
            },
            "words":[
                {
                    "value":"对不起",
                    "translation":"sorry, excuse me"
                },
                {
                    "value":"对了",
                    "translation":"it is right"
                },
                {
                    "value":"对面",
                    "translation":"opposite"
                }
            ],
            "usage":{
                "value":"对不起，请问厕所在哪？",
                "translation":"Excuse me, where is the restroom?"
            }
        },
        {
            "id":"qu-rise",
            "pinyin":"Qǐ",
            "image":"qu-rise.swf",
            "entry":{
                "value":"起",
                "translation":"rise, begin, get up"
            },
            "words":[
                {
                    "value":"起床",
                    "translation":"get up"
                },
                {
                    "value":"升起",
                    "translation":"rise"
                },
                {
                    "value":"了不起",
                    "translation":"amazing"
                }
            ],
            "usage":{
                "value":"起床后，把房间收拾好。",
                "translation":"Put the room up after you have got up."
            }
        },
        {
            "id":"dao-road",
            "pinyin":"Dào",
            "image":"dao-road.swf",
            "entry":{
                "value":"道",
                "translation":"road, principle"
            },
            "words":[
                {
                    "value":"知道",
                    "translation":"know"
                },
                {
                    "value":"道路",
                    "translation":"road, path"
                },
                {
                    "value":"道理",
                    "translation":"principle"
                }
            ],
            "usage":{
                "value":"你知道他是谁吗？",
                "translation":"Do you know who he is?"
            }
        },
        {
            "id":"mei-no",
            "pinyin":"Méi",
            "image":"mei-no.swf",
            "entry":{
                "value":"没",
                "translation":"no, have not, disappear"
            },
            "words":[
                {
                    "value":"没有",
                    "translation":"do not have"
                },
                {
                    "value":"没事",
                    "translation":"nothing to do, it is OK"
                }
            ],
            "usage":{
                "value":"你没穿大衣，冷吗？我没事。",
                "translation":"Are you cold, you don't have a jacket on? I'm good."
            }
        },
        {
            "id":"guan-off",
            "pinyin":"Guān",
            "image":"guan-off.swf",
            "entry":{
                "value":"关",
                "translation":"turn off, close"
            },
            "words":[
                {
                    "value":"关系",
                    "translation":"relation"
                },
                {
                    "value":"关门",
                    "translation":"close the door"
                }
            ],
            "usage":{
                "value":"外面冷，穿件衣服。没关系，我一会儿就回来。",
                "translation":"it is cold outside, put on yuor jacket. it is OK, I will be right back."
            }
        },
        {
            "id":"xi-relation",
            "pinyin":"Xì",
            "image":"xi-relation.swf",
            "entry":{
                "value":"系",
                "translation":"relation, department"
            },
            "words":[
                {
                    "value":"关系",
                    "translation":"relation"
                },
                {
                    "value":"外语系",
                    "translation":"foreign language dept."
                }
            ],
            "usage":{
                "value":"外语系有一百多个学生。",
                "translation":"The foreign language department has over a hundred students."
            }
        },
        {
            "id":"zai-again",
            "pinyin":"Zài",
            "image":"zai-again.swf",
            "entry":{
                "value":"再",
                "translation":"again, repeat"
            },
            "words":[
                {
                    "value":"再见",
                    "translation":"bye"
                },
                {
                    "value":"再做一次",
                    "translation":"do it over"
                }
            ],
            "usage":{
                "value":"我没听清楚，请你再说一遍。",
                "translation":"I didn't hear you clearly, could you say it again?"
            }
        }
    ]
}