
{
    "courseId":"npcr1",
    "lessonId":"08",
    "chapterId":"2",
    "quizletId":"181786868",
    "title":"第八课生词(2)",
    "entries":[
        {
            "id":"duo-more",
            "pinyin":"Duō",
            "image":"duo-more.swf",
            "entry":{
                "value":"多",
                "translation":"more, a lot"
            },
            "words":[
                {
                    "value":"多少",
                    "translation":"how much/many"
                },
                {
                    "value":"不多",
                    "translation":"not much/many"
                }
            ],
            "usage":{
                "value":"苹果多少钱一斤？",
                "translation":"How much a pound is the apple?"
            }
        },
        {
            "id":"shao-less",
            "pinyin":"Shǎo",
            "image":"shao-less.swf",
            "entry":{
                "value":"少",
                "translation":"less, a few"
            },
            "words":[
                {
                    "value":"少量",
                    "translation":"a little"
                },
                {
                    "value":"太少了",
                    "translation":"too little"
                }
            ],
            "usage":{
                "value":"才两个人，太少了，我需要十五个人。",
                "translation":"Only two? Come on, I need at least 15 people."
            }
        },
        {
            "id":"xi-happy",
            "pinyin":"Xǐ",
            "image":"xi-happy.swf",
            "entry":{
                "value":"喜",
                "translation":"happy"
            },
            "words":[
                {
                    "value":"喜欢",
                    "translation":"like"
                },
                {
                    "value":"喜事",
                    "translation":"happy event, wedding"
                }
            ],
            "usage":{
                "value":"喜欢吗？那就送给你了。",
                "translation":"Do you like it? It is your then."
            }
        },
        {
            "id":"huang-joyous",
            "pinyin":"Huān",
            "image":"huang-joyous.swf",
            "entry":{
                "value":"欢",
                "translation":"joyous"
            },
            "words":[
                {
                    "value":"欢乐",
                    "translation":"joyous"
                },
                {
                    "value":"欢快",
                    "translation":"cheerful"
                }
            ],
            "usage":{
                "value":"这是一段欢快的音乐。",
                "translation":"This is a piece of cheerful music."
            }
        },
        {
            "id":"bai-hundred",
            "pinyin":"Bǎi",
            "image":"bai-hundred.swf",
            "entry":{
                "value":"百",
                "translation":"hundred"
            },
            "words":[
                {
                    "value":"一百",
                    "translation":"one hundred"
                },
                {
                    "value":"百万",
                    "translation":"million"
                }
            ],
            "usage":{
                "value":"电影院里只有不到一百人。",
                "translation":"There are less than a hundred people in the cinema"
            }
        },
        {
            "id":"jiang-river",
            "pinyin":"Jīang",
            "image":"jiang-river.swf",
            "entry":{
                "value":"江",
                "translation":"river"
            },
            "words":[
                {
                    "value":"长江",
                    "translation":"Yangtze River"
                },
                {
                    "value":"江山",
                    "translation":"river & mountain, homeland"
                }
            ],
            "usage":{
                "value":"长江是中国的第一大河。",
                "translation":"Yangtze River is the longest revier of China."
            }
        },
        {
            "id":"ru-into",
            "pinyin":"Rù",
            "image":"ru-into.swf",
            "entry":{
                "value":"入",
                "translation":"into"
            },
            "words":[
                {
                    "value":"进入",
                    "translation":"go into"
                },
                {
                    "value":"入门",
                    "translation":"get started"
                }
            ],
            "usage":{
                "value":"在电影院的入口处，我碰见了他。",
                "translation":"I bumped heads with him at the entrance of the theatre."
            }
        },
        {
            "id":"shi-yes",
            "pinyin":"Shì",
            "image":"shi-yes.swf",
            "entry":{
                "value":"是",
                "translation":"be, yes"
            },
            "words":[
                {
                    "value":"是非",
                    "translation":"right and wrong"
                },
                {
                    "value":"不是",
                    "translation":"no, not realy"
                }
            ],
            "usage":{
                "value":"是还是不是，那是个问题。",
                "translation":"To be, or not to be, that is the question."
            }
        },
        {
            "id":"shui-water",
            "pinyin":"Shǔi",
            "image":"shui-water.swf",
            "entry":{
                "value":"水",
                "translation":"water"
            },
            "words":[
                {
                    "value":"喝水",
                    "translation":"drink water"
                },
                {
                    "value":"水果",
                    "translation":"fruit"
                },
                {
                    "value":"水平",
                    "translation":"level"
                }
            ],
            "usage":{
                "value":"他先喝了一口水，然后开始讲故事。",
                "translation":"He took a sip of water and then started telling his story."
            }
        },
        {
            "id":"zou-walk",
            "pinyin":"Zǒu",
            "image":"zou-walk.swf",
            "entry":{
                "value":"走",
                "translation":"walk"
            },
            "words":[
                {
                    "value":"走路",
                    "translation":"walk"
                },
                {
                    "value":"走私",
                    "translation":"smuggling"
                }
            ],
            "usage":{
                "value":"他走得很慢。",
                "translation":"He walks very slowly."
            }
        }
    ]
}