
{
    "courseId":"npcr1",
    "lessonId":"03",
    "chapterId":"1",
    "quizletId":"181783561",
    "title":"第三课生词(1)",
    "entries":[
        {
            "id":"ta-she",
            "pinyin":"Tā",
            "image":"ta-she.swf",
            "entry":{
                "value":"她",
                "translation":"she"
            },
            "words":[
                {
                    "value":"她们",
                    "translation":"they"
                }
            ],
            "usage":{
                "value":"她的个子很高",
                "translation":"She is pretty tall."
            }
        },
        {
            "id":"shi-yes",
            "pinyin":"Shì",
            "image":"shi-yes.swf",
            "entry":{
                "value":"是",
                "translation":"be, yes"
            },
            "words":[
                {
                    "value":"是非",
                    "translation":"right and wrong"
                },
                {
                    "value":"不是",
                    "translation":"no, not realy"
                }
            ],
            "usage":{
                "value":"是还是不是，那是个问题。",
                "translation":"To be, or not to be, that is the question."
            }
        },
        {
            "id":"na-which",
            "pinyin":"Nǎ",
            "image":"na-which.swf",
            "entry":{
                "value":"哪",
                "translation":"which"
            },
            "words":[
                {
                    "value":"哪里",
                    "translation":"where"
                },
                {
                    "value":"哪个",
                    "translation":"which one"
                }
            ],
            "usage":{
                "value":"你是哪里人",
                "translation":"Where do you come from."
            }
        },
        {
            "id":"guo-country",
            "pinyin":"Guó",
            "image":"guo-country.swf",
            "entry":{
                "value":"国",
                "translation":"country"
            },
            "words":[
                {
                    "value":"中国",
                    "translation":"China"
                },
                {
                    "value":"全国",
                    "translation":"entire country"
                }
            ],
            "usage":{
                "value":"世界上有二百多个国家",
                "translation":"There are more than 200 countries in the world."
            }
        },
        {
            "id":"na-that",
            "pinyin":"Nà",
            "image":"na-that.swf",
            "entry":{
                "value":"那",
                "translation":"that"
            },
            "words":[
                {
                    "value":"那天",
                    "translation":"that day"
                },
                {
                    "value":"那是",
                    "translation":"that is"
                }
            ],
            "usage":{
                "value":"那天我们去买东西。",
                "translation":"We went shopping that day."
            }
        },
        {
            "id":"lao-old",
            "pinyin":"Lǎo",
            "image":"lao-old.swf",
            "entry":{
                "value":"老",
                "translation":"old"
            },
            "words":[
                {
                    "value":"老人",
                    "translation":"old person"
                },
                {
                    "value":"老师",
                    "translation":"teacher"
                }
            ],
            "usage":{
                "value":"张老师走进了教室。",
                "translation":"Mr. Zhang walked into the classroom"
            }
        },
        {
            "id":"shui-who",
            "pinyin":"Shǔi",
            "image":"shui-who.swf",
            "entry":{
                "value":"谁",
                "translation":"who"
            },
            "words":[
                {
                    "value":"那是谁",
                    "translation":"who is it"
                }
            ],
            "usage":{
                "value":"和张老师一起走进了教室的是谁？",
                "translation":"Who is coming with Mr. Zhang walked into the classroom"
            }
        },
        {
            "id":"shi-teacher",
            "pinyin":"Shī",
            "image":"shi-teacher.swf",
            "entry":{
                "value":"师",
                "translation":"teacher"
            },
            "words":[
                {
                    "value":"老师",
                    "translation":"teacher"
                },
                {
                    "value":"师傅",
                    "translation":"master"
                }
            ],
            "usage":{
                "value":"张老师走进了教室。",
                "translation":"Mr. Zhang walked into the classroom"
            }
        },
        {
            "id":"mu-wood",
            "pinyin":"Mù",
            "image":"mu-wood.swf",
            "entry":{
                "value":"木",
                "translation":"wood"
            },
            "words":[
                {
                    "value":"木材",
                    "translation":"wood"
                },
                {
                    "value":"积木",
                    "translation":"building blocks"
                }
            ],
            "usage":{
                "value":"远处有一座小木屋。",
                "translation":"There is a little cabin in distance"
            }
        },
        {
            "id":"tu-earth",
            "pinyin":"Tǔ",
            "image":"tu-earth.swf",
            "entry":{
                "value":"土",
                "translation":"earth"
            },
            "words":[
                {
                    "value":"土地",
                    "translation":"land"
                },
                {
                    "value":"领土",
                    "translation":"territory"
                }
            ],
            "usage":{
                "value":"桌上落了一层土。",
                "translation":"The dust is all over the desk."
            }
        }
    ]
}