{
  "type": "service_account",
  "project_id": "gwca-services",
  "private_key_id": "7cbdce311fface6040dcc13ee6dba54885eb8b88",
  "private_key": "-----BEGIN PRIVATE KEY-----\nMIIEvgIBADANBgkqhkiG9w0BAQEFAASCBKgwggSkAgEAAoIBAQCtlNF8cfdjoAPn\nOBR8sPDEKoQPyU6dHiHXIHzXCes2TLK+CXYeyYkH0B4R7gN+zIi7X3i2HU2mUSh+\n7dRdY1QdTEgCqFzkR6NCVj+Fa05zd5+y8GCK2t2x+Hf3gYhDXrrlrjceJQgjRoD1\n/LMz2rE/9kVIFKKHuTFnh4OkyEtWwfCn1Xtv5A0Qn7gI0izP5VUBxbFhGoCJQY9h\n+ygBDCSnQFBPXUhnb5Dybbsb7bvNhtXE+RGQhTqrRNCj3VGVDSwVpR98IR0nvo/t\nPdF74IePmadfkXDyuK/08X6ObbhRLlVoXXLQ3x5rh9BL7fHD79UfG5BqEFX/f2Xx\nK+944U3nAgMBAAECggEAANaEb08/75NApXt7zU1R50DiW0Hz/poL0J6xuuDTZvM8\nxU5PDbyjpEmuObQnwbhNrQhKACiqaUaIIo84HjABvttwrogdI8DNZxKaI62obN+n\nHn0zVjNKG4mBEPqol6GZr3cwCdztR9GxPw/S3CIAhB5299LYnIF6Yyf7UbXQ70qc\nLP2e7d7KXoyjQis4GrjJKxt5eoJYCdFGEOEnlytRWjclGWfueniJ+ba4qhTjWb0u\n5UBs8tSdKv8ba/RryLhgLd8NI8y5eh/PUD+71JAUyGrSts22HZJkDBmQv2JcEYGP\nH9nvFrrKO6Q2ttj0tyVeiEQnsPW2D4bZutF8lirBsQKBgQDYYcJ4mqfUN/LtlOeB\nAab2spi+du2qwkyEyQ890PmfLxtX9peoy43v3S29Xw5JZqNRUxHVE/Rlxp3ACAz2\niDuDY49PS0kuPwu2cyC2Ico3EQnD4SEoP3/JdPmJYrDJFJPyklVqXpzOvQy3KHpH\nczuzL+f0kl5eLzlA6HUMUjtFTwKBgQDNXOnPC4OOz00NTVHlhPyXd+wn2NKu6jMn\nPlU/I6GuG3Gjuv84pVyHr8sBIkWgbh3twFRmkkgUl6+OKHcS8Ed7Zg2x1T+fkmhu\nJyVLziyZ7B4M7+8eJJSSWIsUEUpnqIppdnen0TVlG5uN6d9wehBnPdpm4nIwkWAU\n+ZjIWfD36QKBgDZfOlK76fg1puF0TUfpdl7/OcqCb+48rKWhMCdEX7VUTPapjCpq\nG9xuI5Q2Uoy3Mcq5qP116i+43OLoIvm/+dRmLBisvlLUnMjX3RxnGT0FFwMVixNm\nAWJJ9npDRlEAzrxhcP0tkRGSB6Puk+toVVQNcafPL89S5nwc7WyPLT2ZAoGBAIn5\nFcEcLDxDfLImM5Kv4YDmekxfOVV5VfrUvzNXfiXanGPzm8t0FhG3gv11CDB8KzF0\nGYB8YV8sdi9dcnrP4ka+zw6ehktwcycmt8EReRfE8n+gqBepXgRg5rgJ0eKI8s1e\nYY/nWCdhAAa9jXglGmYywUyEcVG+Kj6NXx+khegZAoGBAL17Uild69oSILNa/eyy\nCcebUqCB6ZTPWcvFxuVhW3c94iTAvkDKqpt7Yp+/4ESpIEzXX8aBYgGaPMYrIFjg\nFZ7+8MIolcmBAjxEMLEjB5YteodEtQiuyAZrTvwQvOdSrnftBMQQwTZqIrxpcK2Z\nq2BAFDhpm6XYNyva0FCQimD0\n-----END PRIVATE KEY-----\n",
  "client_email": "gwca-services@gwca-services.iam.gserviceaccount.com",
  "client_id": "107988168069213690308",
  "auth_uri": "https://accounts.google.com/o/oauth2/auth",
  "token_uri": "https://accounts.google.com/o/oauth2/token",
  "auth_provider_x509_cert_url": "https://www.googleapis.com/oauth2/v1/certs",
  "client_x509_cert_url": "https://www.googleapis.com/robot/v1/metadata/x509/gwca-services%40gwca-services.iam.gserviceaccount.com"
}
